('C:\\Users\\daver_000\\Dropbox\\BibFixer\\build\\BibFixer\\out00-PKG.pkg',
 {'BINARY': 1,
  'DATA': 1,
  'EXECUTABLE': 1,
  'EXTENSION': 1,
  'PYMODULE': 1,
  'PYSOURCE': 1},
 [('out00-PYZ.pyz', 'C:\\Users\\daver_000\\Dropbox\\BibFixer\\build\\BibFixer\\out00-PYZ.pyz', 'PYZ'), ('struct', 'C:\\Anaconda\\lib\\struct.pyc', 'PYMODULE'), ('pyi_os_path', 'C:\\Anaconda\\lib\\site-packages\\PyInstaller\\loader\\pyi_os_path.pyc', 'PYMODULE'), ('pyi_archive', 'C:\\Anaconda\\lib\\site-packages\\PyInstaller\\loader\\pyi_archive.pyc', 'PYMODULE'), ('pyi_importers', 'C:\\Anaconda\\lib\\site-packages\\PyInstaller\\loader\\pyi_importers.pyc', 'PYMODULE'), ('_pyi_bootstrap', 'C:\\Anaconda\\lib\\site-packages\\PyInstaller\\loader\\_pyi_bootstrap.py', 'PYSOURCE'), ('pyi_carchive', 'C:\\Anaconda\\lib\\site-packages\\PyInstaller\\loader\\pyi_carchive.py', 'PYSOURCE'), ('pyi_rth_Tkinter', 'C:\\Anaconda\\lib\\site-packages\\PyInstaller\\loader\\rthooks\\pyi_rth_Tkinter.py', 'PYSOURCE'), ('BibFixer', 'bin/BibFixer.py', 'PYSOURCE'), ('python27.dll', 'C:\\Anaconda\\python27.dll', 'BINARY'), ('select', 'C:\\Anaconda\\DLLs\\select.pyd', 'EXTENSION'), ('unicodedata', 'C:\\Anaconda\\DLLs\\unicodedata.pyd', 'EXTENSION'), ('win32evtlog', 'C:\\Anaconda\\lib\\site-packages\\win32\\win32evtlog.pyd', 'EXTENSION'), ('user32.dll', 'C:\\WINDOWS\\system32\\user32.dll', 'BINARY'), ('msvcrt.dll', 'C:\\WINDOWS\\system32\\msvcrt.dll', 'BINARY'), ('_tkinter', 'C:\\Anaconda\\DLLs\\_tkinter.pyd', 'EXTENSION'), ('_hashlib', 'C:\\Anaconda\\DLLs\\_hashlib.pyd', 'EXTENSION'), ('bz2', 'C:\\Anaconda\\DLLs\\bz2.pyd', 'EXTENSION'), ('_ssl', 'C:\\Anaconda\\DLLs\\_ssl.pyd', 'EXTENSION'), ('_ctypes', 'C:\\Anaconda\\DLLs\\_ctypes.pyd', 'EXTENSION'), ('win32api', 'C:\\Anaconda\\lib\\site-packages\\win32\\win32api.pyd', 'EXTENSION'), ('_socket', 'C:\\Anaconda\\DLLs\\_socket.pyd', 'EXTENSION'), ('pywintypes27.dll', 'C:\\Anaconda\\lib\\site-packages\\win32\\pywintypes27.dll', 'BINARY'), ('tcl85.dll', 'C:\\Anaconda\\DLLs\\tcl85.dll', 'BINARY'), ('tk85.dll', 'C:\\Anaconda\\DLLs\\tk85.dll', 'BINARY'), ('_MEI\\tcl\\auto.tcl', 'C:\\Anaconda\\tcl\\tcl8.5\\auto.tcl', 'DATA'), ('_MEI\\tcl\\clock.tcl', 'C:\\Anaconda\\tcl\\tcl8.5\\clock.tcl', 'DATA'), ('_MEI\\tcl\\history.tcl', 'C:\\Anaconda\\tcl\\tcl8.5\\history.tcl', 'DATA'), ('_MEI\\tcl\\init.tcl', 'C:\\Anaconda\\tcl\\tcl8.5\\init.tcl', 'DATA'), ('_MEI\\tcl\\package.tcl', 'C:\\Anaconda\\tcl\\tcl8.5\\package.tcl', 'DATA'), ('_MEI\\tcl\\parray.tcl', 'C:\\Anaconda\\tcl\\tcl8.5\\parray.tcl', 'DATA'), ('_MEI\\tcl\\safe.tcl', 'C:\\Anaconda\\tcl\\tcl8.5\\safe.tcl', 'DATA'), ('_MEI\\tcl\\tclIndex', 'C:\\Anaconda\\tcl\\tcl8.5\\tclIndex', 'DATA'), ('_MEI\\tcl\\tm.tcl', 'C:\\Anaconda\\tcl\\tcl8.5\\tm.tcl', 'DATA'), ('_MEI\\tcl\\word.tcl', 'C:\\Anaconda\\tcl\\tcl8.5\\word.tcl', 'DATA'), ('_MEI\\tcl\\tzdata\\CET', 'C:\\Anaconda\\tcl\\tcl8.5\\tzdata\\CET', 'DATA'), ('_MEI\\tcl\\tzdata\\CST6CDT', 'C:\\Anaconda\\tcl\\tcl8.5\\tzdata\\CST6CDT', 'DATA'), ('_MEI\\tcl\\tzdata\\Cuba', 'C:\\Anaconda\\tcl\\tcl8.5\\tzdata\\Cuba', 'DATA'), ('_MEI\\tcl\\tzdata\\EET', 'C:\\Anaconda\\tcl\\tcl8.5\\tzdata\\EET', 'DATA'), ('_MEI\\tcl\\tzdata\\Egypt', 'C:\\Anaconda\\tcl\\tcl8.5\\tzdata\\Egypt', 'DATA'), ('_MEI\\tcl\\tzdata\\Eire', 'C:\\Anaconda\\tcl\\tcl8.5\\tzdata\\Eire', 'DATA'), ('_MEI\\tcl\\tzdata\\EST', 'C:\\Anaconda\\tcl\\tcl8.5\\tzdata\\EST', 'DATA'), ('_MEI\\tcl\\tzdata\\EST5EDT', 'C:\\Anaconda\\tcl\\tcl8.5\\tzdata\\EST5EDT', 'DATA'), ('_MEI\\tcl\\tzdata\\GB', 'C:\\Anaconda\\tcl\\tcl8.5\\tzdata\\GB', 'DATA'), ('_MEI\\tcl\\tzdata\\GB-Eire', 'C:\\Anaconda\\tcl\\tcl8.5\\tzdata\\GB-Eire', 'DATA'), ('_MEI\\tcl\\tzdata\\GMT', 'C:\\Anaconda\\tcl\\tcl8.5\\tzdata\\GMT', 'DATA'), ('_MEI\\tcl\\tzdata\\GMT+0', 'C:\\Anaconda\\tcl\\tcl8.5\\tzdata\\GMT+0', 'DATA'), ('_MEI\\tcl\\tzdata\\GMT-0', 'C:\\Anaconda\\tcl\\tcl8.5\\tzdata\\GMT-0', 'DATA'), ('_MEI\\tcl\\tzdata\\GMT0', 'C:\\Anaconda\\tcl\\tcl8.5\\tzdata\\GMT0', 'DATA'), ('_MEI\\tcl\\tzdata\\Greenwich', 'C:\\Anaconda\\tcl\\tcl8.5\\tzdata\\Greenwich', 'DATA'), ('_MEI\\tcl\\tzdata\\Hongkong', 'C:\\Anaconda\\tcl\\tcl8.5\\tzdata\\Hongkong', 'DATA'), ('_MEI\\tcl\\tzdata\\HST', 'C:\\Anaconda\\tcl\\tcl8.5\\tzdata\\HST', 'DATA'), ('_MEI\\tcl\\tzdata\\Iceland', 'C:\\Anaconda\\tcl\\tcl8.5\\tzdata\\Iceland', 'DATA'), ('_MEI\\tcl\\tzdata\\Iran', 'C:\\Anaconda\\tcl\\tcl8.5\\tzdata\\Iran', 'DATA'), ('_MEI\\tcl\\tzdata\\Israel', 'C:\\Anaconda\\tcl\\tcl8.5\\tzdata\\Israel', 'DATA'), ('_MEI\\tcl\\tzdata\\Jamaica', 'C:\\Anaconda\\tcl\\tcl8.5\\tzdata\\Jamaica', 'DATA'), ('_MEI\\tcl\\tzdata\\Japan', 'C:\\Anaconda\\tcl\\tcl8.5\\tzdata\\Japan', 'DATA'), ('_MEI\\tcl\\tzdata\\Kwajalein', 'C:\\Anaconda\\tcl\\tcl8.5\\tzdata\\Kwajalein', 'DATA'), ('_MEI\\tcl\\tzdata\\Libya', 'C:\\Anaconda\\tcl\\tcl8.5\\tzdata\\Libya', 'DATA'), ('_MEI\\tcl\\tzdata\\MET', 'C:\\Anaconda\\tcl\\tcl8.5\\tzdata\\MET', 'DATA'), ('_MEI\\tcl\\tzdata\\MST', 'C:\\Anaconda\\tcl\\tcl8.5\\tzdata\\MST', 'DATA'), ('_MEI\\tcl\\tzdata\\MST7MDT', 'C:\\Anaconda\\tcl\\tcl8.5\\tzdata\\MST7MDT', 'DATA'), ('_MEI\\tcl\\tzdata\\Navajo', 'C:\\Anaconda\\tcl\\tcl8.5\\tzdata\\Navajo', 'DATA'), ('_MEI\\tcl\\tzdata\\NZ', 'C:\\Anaconda\\tcl\\tcl8.5\\tzdata\\NZ', 'DATA'), ('_MEI\\tcl\\tzdata\\NZ-CHAT', 'C:\\Anaconda\\tcl\\tcl8.5\\tzdata\\NZ-CHAT', 'DATA'), ('_MEI\\tcl\\tzdata\\Poland', 'C:\\Anaconda\\tcl\\tcl8.5\\tzdata\\Poland', 'DATA'), ('_MEI\\tcl\\tzdata\\Portugal', 'C:\\Anaconda\\tcl\\tcl8.5\\tzdata\\Portugal', 'DATA'), ('_MEI\\tcl\\tzdata\\PRC', 'C:\\Anaconda\\tcl\\tcl8.5\\tzdata\\PRC', 'DATA'), ('_MEI\\tcl\\tzdata\\PST8PDT', 'C:\\Anaconda\\tcl\\tcl8.5\\tzdata\\PST8PDT', 'DATA'), ('_MEI\\tcl\\tzdata\\ROC', 'C:\\Anaconda\\tcl\\tcl8.5\\tzdata\\ROC', 'DATA'), ('_MEI\\tcl\\tzdata\\ROK', 'C:\\Anaconda\\tcl\\tcl8.5\\tzdata\\ROK', 'DATA'), ('_MEI\\tcl\\tzdata\\Singapore', 'C:\\Anaconda\\tcl\\tcl8.5\\tzdata\\Singapore', 'DATA'), ('_MEI\\tcl\\tzdata\\Turkey', 'C:\\Anaconda\\tcl\\tcl8.5\\tzdata\\Turkey', 'DATA'), ('_MEI\\tcl\\tzdata\\UCT', 'C:\\Anaconda\\tcl\\tcl8.5\\tzdata\\UCT', 'DATA'), ('_MEI\\tcl\\tzdata\\Universal', 'C:\\Anaconda\\tcl\\tcl8.5\\tzdata\\Universal', 'DATA'), ('_MEI\\tcl\\tzdata\\UTC', 'C:\\Anaconda\\tcl\\tcl8.5\\tzdata\\UTC', 'DATA'), ('_MEI\\tcl\\tzdata\\W-SU', 'C:\\Anaconda\\tcl\\tcl8.5\\tzdata\\W-SU', 'DATA'), ('_MEI\\tcl\\tzdata\\WET', 'C:\\Anaconda\\tcl\\tcl8.5\\tzdata\\WET', 'DATA'), ('_MEI\\tcl\\tzdata\\Zulu', 'C:\\Anaconda\\tcl\\tcl8.5\\tzdata\\Zulu', 'DATA'), ('_MEI\\tcl\\tzdata\\US\\Alaska', 'C:\\Anaconda\\tcl\\tcl8.5\\tzdata\\US\\Alaska', 'DATA'), ('_MEI\\tcl\\tzdata\\US\\Aleutian', 'C:\\Anaconda\\tcl\\tcl8.5\\tzdata\\US\\Aleutian', 'DATA'), ('_MEI\\tcl\\tzdata\\US\\Arizona', 'C:\\Anaconda\\tcl\\tcl8.5\\tzdata\\US\\Arizona', 'DATA'), ('_MEI\\tcl\\tzdata\\US\\Central', 'C:\\Anaconda\\tcl\\tcl8.5\\tzdata\\US\\Central', 'DATA'), ('_MEI\\tcl\\tzdata\\US\\East-Indiana', 'C:\\Anaconda\\tcl\\tcl8.5\\tzdata\\US\\East-Indiana', 'DATA'), ('_MEI\\tcl\\tzdata\\US\\Eastern', 'C:\\Anaconda\\tcl\\tcl8.5\\tzdata\\US\\Eastern', 'DATA'), ('_MEI\\tcl\\tzdata\\US\\Hawaii', 'C:\\Anaconda\\tcl\\tcl8.5\\tzdata\\US\\Hawaii', 'DATA'), ('_MEI\\tcl\\tzdata\\US\\Indiana-Starke', 'C:\\Anaconda\\tcl\\tcl8.5\\tzdata\\US\\Indiana-Starke', 'DATA'), ('_MEI\\tcl\\tzdata\\US\\Michigan', 'C:\\Anaconda\\tcl\\tcl8.5\\tzdata\\US\\Michigan', 'DATA'), ('_MEI\\tcl\\tzdata\\US\\Mountain', 'C:\\Anaconda\\tcl\\tcl8.5\\tzdata\\US\\Mountain', 'DATA'), ('_MEI\\tcl\\tzdata\\US\\Pacific', 'C:\\Anaconda\\tcl\\tcl8.5\\tzdata\\US\\Pacific', 'DATA'), ('_MEI\\tcl\\tzdata\\US\\Pacific-New', 'C:\\Anaconda\\tcl\\tcl8.5\\tzdata\\US\\Pacific-New', 'DATA'), ('_MEI\\tcl\\tzdata\\US\\Samoa', 'C:\\Anaconda\\tcl\\tcl8.5\\tzdata\\US\\Samoa', 'DATA'), ('_MEI\\tcl\\tzdata\\SystemV\\AST4', 'C:\\Anaconda\\tcl\\tcl8.5\\tzdata\\SystemV\\AST4', 'DATA'), ('_MEI\\tcl\\tzdata\\SystemV\\AST4ADT', 'C:\\Anaconda\\tcl\\tcl8.5\\tzdata\\SystemV\\AST4ADT', 'DATA'), ('_MEI\\tcl\\tzdata\\SystemV\\CST6', 'C:\\Anaconda\\tcl\\tcl8.5\\tzdata\\SystemV\\CST6', 'DATA'), ('_MEI\\tcl\\tzdata\\SystemV\\CST6CDT', 'C:\\Anaconda\\tcl\\tcl8.5\\tzdata\\SystemV\\CST6CDT', 'DATA'), ('_MEI\\tcl\\tzdata\\SystemV\\EST5', 'C:\\Anaconda\\tcl\\tcl8.5\\tzdata\\SystemV\\EST5', 'DATA'), ('_MEI\\tcl\\tzdata\\SystemV\\EST5EDT', 'C:\\Anaconda\\tcl\\tcl8.5\\tzdata\\SystemV\\EST5EDT', 'DATA'), ('_MEI\\tcl\\tzdata\\SystemV\\HST10', 'C:\\Anaconda\\tcl\\tcl8.5\\tzdata\\SystemV\\HST10', 'DATA'), ('_MEI\\tcl\\tzdata\\SystemV\\MST7', 'C:\\Anaconda\\tcl\\tcl8.5\\tzdata\\SystemV\\MST7', 'DATA'), ('_MEI\\tcl\\tzdata\\SystemV\\MST7MDT', 'C:\\Anaconda\\tcl\\tcl8.5\\tzdata\\SystemV\\MST7MDT', 'DATA'), ('_MEI\\tcl\\tzdata\\SystemV\\PST8', 'C:\\Anaconda\\tcl\\tcl8.5\\tzdata\\SystemV\\PST8', 'DATA'), ('_MEI\\tcl\\tzdata\\SystemV\\PST8PDT', 'C:\\Anaconda\\tcl\\tcl8.5\\tzdata\\SystemV\\PST8PDT', 'DATA'), ('_MEI\\tcl\\tzdata\\SystemV\\YST9', 'C:\\Anaconda\\tcl\\tcl8.5\\tzdata\\SystemV\\YST9', 'DATA'), ('_MEI\\tcl\\tzdata\\SystemV\\YST9YDT', 'C:\\Anaconda\\tcl\\tcl8.5\\tzdata\\SystemV\\YST9YDT', 'DATA'), ('_MEI\\tcl\\tzdata\\Pacific\\Apia', 'C:\\Anaconda\\tcl\\tcl8.5\\tzdata\\Pacific\\Apia', 'DATA'), ('_MEI\\tcl\\tzdata\\Pacific\\Auckland', 'C:\\Anaconda\\tcl\\tcl8.5\\tzdata\\Pacific\\Auckland', 'DATA'), ('_MEI\\tcl\\tzdata\\Pacific\\Chatham', 'C:\\Anaconda\\tcl\\tcl8.5\\tzdata\\Pacific\\Chatham', 'DATA'), ('_MEI\\tcl\\tzdata\\Pacific\\Chuuk', 'C:\\Anaconda\\tcl\\tcl8.5\\tzdata\\Pacific\\Chuuk', 'DATA'), ('_MEI\\tcl\\tzdata\\Pacific\\Easter', 'C:\\Anaconda\\tcl\\tcl8.5\\tzdata\\Pacific\\Easter', 'DATA'), ('_MEI\\tcl\\tzdata\\Pacific\\Efate', 'C:\\Anaconda\\tcl\\tcl8.5\\tzdata\\Pacific\\Efate', 'DATA'), ('_MEI\\tcl\\tzdata\\Pacific\\Enderbury', 'C:\\Anaconda\\tcl\\tcl8.5\\tzdata\\Pacific\\Enderbury', 'DATA'), ('_MEI\\tcl\\tzdata\\Pacific\\Fakaofo', 'C:\\Anaconda\\tcl\\tcl8.5\\tzdata\\Pacific\\Fakaofo', 'DATA'), ('_MEI\\tcl\\tzdata\\Pacific\\Fiji', 'C:\\Anaconda\\tcl\\tcl8.5\\tzdata\\Pacific\\Fiji', 'DATA'), ('_MEI\\tcl\\tzdata\\Pacific\\Funafuti', 'C:\\Anaconda\\tcl\\tcl8.5\\tzdata\\Pacific\\Funafuti', 'DATA'), ('_MEI\\tcl\\tzdata\\Pacific\\Galapagos', 'C:\\Anaconda\\tcl\\tcl8.5\\tzdata\\Pacific\\Galapagos', 'DATA'), ('_MEI\\tcl\\tzdata\\Pacific\\Gambier', 'C:\\Anaconda\\tcl\\tcl8.5\\tzdata\\Pacific\\Gambier', 'DATA'), ('_MEI\\tcl\\tzdata\\Pacific\\Guadalcanal', 'C:\\Anaconda\\tcl\\tcl8.5\\tzdata\\Pacific\\Guadalcanal', 'DATA'), ('_MEI\\tcl\\tzdata\\Pacific\\Guam', 'C:\\Anaconda\\tcl\\tcl8.5\\tzdata\\Pacific\\Guam', 'DATA'), ('_MEI\\tcl\\tzdata\\Pacific\\Honolulu', 'C:\\Anaconda\\tcl\\tcl8.5\\tzdata\\Pacific\\Honolulu', 'DATA'), ('_MEI\\tcl\\tzdata\\Pacific\\Johnston', 'C:\\Anaconda\\tcl\\tcl8.5\\tzdata\\Pacific\\Johnston', 'DATA'), ('_MEI\\tcl\\tzdata\\Pacific\\Kiritimati', 'C:\\Anaconda\\tcl\\tcl8.5\\tzdata\\Pacific\\Kiritimati', 'DATA'), ('_MEI\\tcl\\tzdata\\Pacific\\Kosrae', 'C:\\Anaconda\\tcl\\tcl8.5\\tzdata\\Pacific\\Kosrae', 'DATA'), ('_MEI\\tcl\\tzdata\\Pacific\\Kwajalein', 'C:\\Anaconda\\tcl\\tcl8.5\\tzdata\\Pacific\\Kwajalein', 'DATA'), ('_MEI\\tcl\\tzdata\\Pacific\\Majuro', 'C:\\Anaconda\\tcl\\tcl8.5\\tzdata\\Pacific\\Majuro', 'DATA'), ('_MEI\\tcl\\tzdata\\Pacific\\Marquesas', 'C:\\Anaconda\\tcl\\tcl8.5\\tzdata\\Pacific\\Marquesas', 'DATA'), ('_MEI\\tcl\\tzdata\\Pacific\\Midway', 'C:\\Anaconda\\tcl\\tcl8.5\\tzdata\\Pacific\\Midway', 'DATA'), ('_MEI\\tcl\\tzdata\\Pacific\\Nauru', 'C:\\Anaconda\\tcl\\tcl8.5\\tzdata\\Pacific\\Nauru', 'DATA'), ('_MEI\\tcl\\tzdata\\Pacific\\Niue', 'C:\\Anaconda\\tcl\\tcl8.5\\tzdata\\Pacific\\Niue', 'DATA'), ('_MEI\\tcl\\tzdata\\Pacific\\Norfolk', 'C:\\Anaconda\\tcl\\tcl8.5\\tzdata\\Pacific\\Norfolk', 'DATA'), ('_MEI\\tcl\\tzdata\\Pacific\\Noumea', 'C:\\Anaconda\\tcl\\tcl8.5\\tzdata\\Pacific\\Noumea', 'DATA'), ('_MEI\\tcl\\tzdata\\Pacific\\Pago_Pago', 'C:\\Anaconda\\tcl\\tcl8.5\\tzdata\\Pacific\\Pago_Pago', 'DATA'), ('_MEI\\tcl\\tzdata\\Pacific\\Palau', 'C:\\Anaconda\\tcl\\tcl8.5\\tzdata\\Pacific\\Palau', 'DATA'), ('_MEI\\tcl\\tzdata\\Pacific\\Pitcairn', 'C:\\Anaconda\\tcl\\tcl8.5\\tzdata\\Pacific\\Pitcairn', 'DATA'), ('_MEI\\tcl\\tzdata\\Pacific\\Pohnpei', 'C:\\Anaconda\\tcl\\tcl8.5\\tzdata\\Pacific\\Pohnpei', 'DATA'), ('_MEI\\tcl\\tzdata\\Pacific\\Ponape', 'C:\\Anaconda\\tcl\\tcl8.5\\tzdata\\Pacific\\Ponape', 'DATA'), ('_MEI\\tcl\\tzdata\\Pacific\\Port_Moresby', 'C:\\Anaconda\\tcl\\tcl8.5\\tzdata\\Pacific\\Port_Moresby', 'DATA'), ('_MEI\\tcl\\tzdata\\Pacific\\Rarotonga', 'C:\\Anaconda\\tcl\\tcl8.5\\tzdata\\Pacific\\Rarotonga', 'DATA'), ('_MEI\\tcl\\tzdata\\Pacific\\Saipan', 'C:\\Anaconda\\tcl\\tcl8.5\\tzdata\\Pacific\\Saipan', 'DATA'), ('_MEI\\tcl\\tzdata\\Pacific\\Samoa', 'C:\\Anaconda\\tcl\\tcl8.5\\tzdata\\Pacific\\Samoa', 'DATA'), ('_MEI\\tcl\\tzdata\\Pacific\\Tahiti', 'C:\\Anaconda\\tcl\\tcl8.5\\tzdata\\Pacific\\Tahiti', 'DATA'), ('_MEI\\tcl\\tzdata\\Pacific\\Tarawa', 'C:\\Anaconda\\tcl\\tcl8.5\\tzdata\\Pacific\\Tarawa', 'DATA'), ('_MEI\\tcl\\tzdata\\Pacific\\Tongatapu', 'C:\\Anaconda\\tcl\\tcl8.5\\tzdata\\Pacific\\Tongatapu', 'DATA'), ('_MEI\\tcl\\tzdata\\Pacific\\Truk', 'C:\\Anaconda\\tcl\\tcl8.5\\tzdata\\Pacific\\Truk', 'DATA'), ('_MEI\\tcl\\tzdata\\Pacific\\Wake', 'C:\\Anaconda\\tcl\\tcl8.5\\tzdata\\Pacific\\Wake', 'DATA'), ('_MEI\\tcl\\tzdata\\Pacific\\Wallis', 'C:\\Anaconda\\tcl\\tcl8.5\\tzdata\\Pacific\\Wallis', 'DATA'), ('_MEI\\tcl\\tzdata\\Pacific\\Yap', 'C:\\Anaconda\\tcl\\tcl8.5\\tzdata\\Pacific\\Yap', 'DATA'), ('_MEI\\tcl\\tzdata\\Mexico\\BajaNorte', 'C:\\Anaconda\\tcl\\tcl8.5\\tzdata\\Mexico\\BajaNorte', 'DATA'), ('_MEI\\tcl\\tzdata\\Mexico\\BajaSur', 'C:\\Anaconda\\tcl\\tcl8.5\\tzdata\\Mexico\\BajaSur', 'DATA'), ('_MEI\\tcl\\tzdata\\Mexico\\General', 'C:\\Anaconda\\tcl\\tcl8.5\\tzdata\\Mexico\\General', 'DATA'), ('_MEI\\tcl\\tzdata\\Indian\\Antananarivo', 'C:\\Anaconda\\tcl\\tcl8.5\\tzdata\\Indian\\Antananarivo', 'DATA'), ('_MEI\\tcl\\tzdata\\Indian\\Chagos', 'C:\\Anaconda\\tcl\\tcl8.5\\tzdata\\Indian\\Chagos', 'DATA'), ('_MEI\\tcl\\tzdata\\Indian\\Christmas', 'C:\\Anaconda\\tcl\\tcl8.5\\tzdata\\Indian\\Christmas', 'DATA'), ('_MEI\\tcl\\tzdata\\Indian\\Cocos', 'C:\\Anaconda\\tcl\\tcl8.5\\tzdata\\Indian\\Cocos', 'DATA'), ('_MEI\\tcl\\tzdata\\Indian\\Comoro', 'C:\\Anaconda\\tcl\\tcl8.5\\tzdata\\Indian\\Comoro', 'DATA'), ('_MEI\\tcl\\tzdata\\Indian\\Kerguelen', 'C:\\Anaconda\\tcl\\tcl8.5\\tzdata\\Indian\\Kerguelen', 'DATA'), ('_MEI\\tcl\\tzdata\\Indian\\Mahe', 'C:\\Anaconda\\tcl\\tcl8.5\\tzdata\\Indian\\Mahe', 'DATA'), ('_MEI\\tcl\\tzdata\\Indian\\Maldives', 'C:\\Anaconda\\tcl\\tcl8.5\\tzdata\\Indian\\Maldives', 'DATA'), ('_MEI\\tcl\\tzdata\\Indian\\Mauritius', 'C:\\Anaconda\\tcl\\tcl8.5\\tzdata\\Indian\\Mauritius', 'DATA'), ('_MEI\\tcl\\tzdata\\Indian\\Mayotte', 'C:\\Anaconda\\tcl\\tcl8.5\\tzdata\\Indian\\Mayotte', 'DATA'), ('_MEI\\tcl\\tzdata\\Indian\\Reunion', 'C:\\Anaconda\\tcl\\tcl8.5\\tzdata\\Indian\\Reunion', 'DATA'), ('_MEI\\tcl\\tzdata\\Europe\\Amsterdam', 'C:\\Anaconda\\tcl\\tcl8.5\\tzdata\\Europe\\Amsterdam', 'DATA'), ('_MEI\\tcl\\tzdata\\Europe\\Andorra', 'C:\\Anaconda\\tcl\\tcl8.5\\tzdata\\Europe\\Andorra', 'DATA'), ('_MEI\\tcl\\tzdata\\Europe\\Athens', 'C:\\Anaconda\\tcl\\tcl8.5\\tzdata\\Europe\\Athens', 'DATA'), ('_MEI\\tcl\\tzdata\\Europe\\Belfast', 'C:\\Anaconda\\tcl\\tcl8.5\\tzdata\\Europe\\Belfast', 'DATA'), ('_MEI\\tcl\\tzdata\\Europe\\Belgrade', 'C:\\Anaconda\\tcl\\tcl8.5\\tzdata\\Europe\\Belgrade', 'DATA'), ('_MEI\\tcl\\tzdata\\Europe\\Berlin', 'C:\\Anaconda\\tcl\\tcl8.5\\tzdata\\Europe\\Berlin', 'DATA'), ('_MEI\\tcl\\tzdata\\Europe\\Bratislava', 'C:\\Anaconda\\tcl\\tcl8.5\\tzdata\\Europe\\Bratislava', 'DATA'), ('_MEI\\tcl\\tzdata\\Europe\\Brussels', 'C:\\Anaconda\\tcl\\tcl8.5\\tzdata\\Europe\\Brussels', 'DATA'), ('_MEI\\tcl\\tzdata\\Europe\\Bucharest', 'C:\\Anaconda\\tcl\\tcl8.5\\tzdata\\Europe\\Bucharest', 'DATA'), ('_MEI\\tcl\\tzdata\\Europe\\Budapest', 'C:\\Anaconda\\tcl\\tcl8.5\\tzdata\\Europe\\Budapest', 'DATA'), ('_MEI\\tcl\\tzdata\\Europe\\Busingen', 'C:\\Anaconda\\tcl\\tcl8.5\\tzdata\\Europe\\Busingen', 'DATA'), ('_MEI\\tcl\\tzdata\\Europe\\Chisinau', 'C:\\Anaconda\\tcl\\tcl8.5\\tzdata\\Europe\\Chisinau', 'DATA'), ('_MEI\\tcl\\tzdata\\Europe\\Copenhagen', 'C:\\Anaconda\\tcl\\tcl8.5\\tzdata\\Europe\\Copenhagen', 'DATA'), ('_MEI\\tcl\\tzdata\\Europe\\Dublin', 'C:\\Anaconda\\tcl\\tcl8.5\\tzdata\\Europe\\Dublin', 'DATA'), ('_MEI\\tcl\\tzdata\\Europe\\Gibraltar', 'C:\\Anaconda\\tcl\\tcl8.5\\tzdata\\Europe\\Gibraltar', 'DATA'), ('_MEI\\tcl\\tzdata\\Europe\\Guernsey', 'C:\\Anaconda\\tcl\\tcl8.5\\tzdata\\Europe\\Guernsey', 'DATA'), ('_MEI\\tcl\\tzdata\\Europe\\Helsinki', 'C:\\Anaconda\\tcl\\tcl8.5\\tzdata\\Europe\\Helsinki', 'DATA'), ('_MEI\\tcl\\tzdata\\Europe\\Isle_of_Man', 'C:\\Anaconda\\tcl\\tcl8.5\\tzdata\\Europe\\Isle_of_Man', 'DATA'), ('_MEI\\tcl\\tzdata\\Europe\\Istanbul', 'C:\\Anaconda\\tcl\\tcl8.5\\tzdata\\Europe\\Istanbul', 'DATA'), ('_MEI\\tcl\\tzdata\\Europe\\Jersey', 'C:\\Anaconda\\tcl\\tcl8.5\\tzdata\\Europe\\Jersey', 'DATA'), ('_MEI\\tcl\\tzdata\\Europe\\Kaliningrad', 'C:\\Anaconda\\tcl\\tcl8.5\\tzdata\\Europe\\Kaliningrad', 'DATA'), ('_MEI\\tcl\\tzdata\\Europe\\Kiev', 'C:\\Anaconda\\tcl\\tcl8.5\\tzdata\\Europe\\Kiev', 'DATA'), ('_MEI\\tcl\\tzdata\\Europe\\Lisbon', 'C:\\Anaconda\\tcl\\tcl8.5\\tzdata\\Europe\\Lisbon', 'DATA'), ('_MEI\\tcl\\tzdata\\Europe\\Ljubljana', 'C:\\Anaconda\\tcl\\tcl8.5\\tzdata\\Europe\\Ljubljana', 'DATA'), ('_MEI\\tcl\\tzdata\\Europe\\London', 'C:\\Anaconda\\tcl\\tcl8.5\\tzdata\\Europe\\London', 'DATA'), ('_MEI\\tcl\\tzdata\\Europe\\Luxembourg', 'C:\\Anaconda\\tcl\\tcl8.5\\tzdata\\Europe\\Luxembourg', 'DATA'), ('_MEI\\tcl\\tzdata\\Europe\\Madrid', 'C:\\Anaconda\\tcl\\tcl8.5\\tzdata\\Europe\\Madrid', 'DATA'), ('_MEI\\tcl\\tzdata\\Europe\\Malta', 'C:\\Anaconda\\tcl\\tcl8.5\\tzdata\\Europe\\Malta', 'DATA'), ('_MEI\\tcl\\tzdata\\Europe\\Mariehamn', 'C:\\Anaconda\\tcl\\tcl8.5\\tzdata\\Europe\\Mariehamn', 'DATA'), ('_MEI\\tcl\\tzdata\\Europe\\Minsk', 'C:\\Anaconda\\tcl\\tcl8.5\\tzdata\\Europe\\Minsk', 'DATA'), ('_MEI\\tcl\\tzdata\\Europe\\Monaco', 'C:\\Anaconda\\tcl\\tcl8.5\\tzdata\\Europe\\Monaco', 'DATA'), ('_MEI\\tcl\\tzdata\\Europe\\Moscow', 'C:\\Anaconda\\tcl\\tcl8.5\\tzdata\\Europe\\Moscow', 'DATA'), ('_MEI\\tcl\\tzdata\\Europe\\Nicosia', 'C:\\Anaconda\\tcl\\tcl8.5\\tzdata\\Europe\\Nicosia', 'DATA'), ('_MEI\\tcl\\tzdata\\Europe\\Oslo', 'C:\\Anaconda\\tcl\\tcl8.5\\tzdata\\Europe\\Oslo', 'DATA'), ('_MEI\\tcl\\tzdata\\Europe\\Paris', 'C:\\Anaconda\\tcl\\tcl8.5\\tzdata\\Europe\\Paris', 'DATA'), ('_MEI\\tcl\\tzdata\\Europe\\Podgorica', 'C:\\Anaconda\\tcl\\tcl8.5\\tzdata\\Europe\\Podgorica', 'DATA'), ('_MEI\\tcl\\tzdata\\Europe\\Prague', 'C:\\Anaconda\\tcl\\tcl8.5\\tzdata\\Europe\\Prague', 'DATA'), ('_MEI\\tcl\\tzdata\\Europe\\Riga', 'C:\\Anaconda\\tcl\\tcl8.5\\tzdata\\Europe\\Riga', 'DATA'), ('_MEI\\tcl\\tzdata\\Europe\\Rome', 'C:\\Anaconda\\tcl\\tcl8.5\\tzdata\\Europe\\Rome', 'DATA'), ('_MEI\\tcl\\tzdata\\Europe\\Samara', 'C:\\Anaconda\\tcl\\tcl8.5\\tzdata\\Europe\\Samara', 'DATA'), ('_MEI\\tcl\\tzdata\\Europe\\San_Marino', 'C:\\Anaconda\\tcl\\tcl8.5\\tzdata\\Europe\\San_Marino', 'DATA'), ('_MEI\\tcl\\tzdata\\Europe\\Sarajevo', 'C:\\Anaconda\\tcl\\tcl8.5\\tzdata\\Europe\\Sarajevo', 'DATA'), ('_MEI\\tcl\\tzdata\\Europe\\Simferopol', 'C:\\Anaconda\\tcl\\tcl8.5\\tzdata\\Europe\\Simferopol', 'DATA'), ('_MEI\\tcl\\tzdata\\Europe\\Skopje', 'C:\\Anaconda\\tcl\\tcl8.5\\tzdata\\Europe\\Skopje', 'DATA'), ('_MEI\\tcl\\tzdata\\Europe\\Sofia', 'C:\\Anaconda\\tcl\\tcl8.5\\tzdata\\Europe\\Sofia', 'DATA'), ('_MEI\\tcl\\tzdata\\Europe\\Stockholm', 'C:\\Anaconda\\tcl\\tcl8.5\\tzdata\\Europe\\Stockholm', 'DATA'), ('_MEI\\tcl\\tzdata\\Europe\\Tallinn', 'C:\\Anaconda\\tcl\\tcl8.5\\tzdata\\Europe\\Tallinn', 'DATA'), ('_MEI\\tcl\\tzdata\\Europe\\Tirane', 'C:\\Anaconda\\tcl\\tcl8.5\\tzdata\\Europe\\Tirane', 'DATA'), ('_MEI\\tcl\\tzdata\\Europe\\Tiraspol', 'C:\\Anaconda\\tcl\\tcl8.5\\tzdata\\Europe\\Tiraspol', 'DATA'), ('_MEI\\tcl\\tzdata\\Europe\\Uzhgorod', 'C:\\Anaconda\\tcl\\tcl8.5\\tzdata\\Europe\\Uzhgorod', 'DATA'), ('_MEI\\tcl\\tzdata\\Europe\\Vaduz', 'C:\\Anaconda\\tcl\\tcl8.5\\tzdata\\Europe\\Vaduz', 'DATA'), ('_MEI\\tcl\\tzdata\\Europe\\Vatican', 'C:\\Anaconda\\tcl\\tcl8.5\\tzdata\\Europe\\Vatican', 'DATA'), ('_MEI\\tcl\\tzdata\\Europe\\Vienna', 'C:\\Anaconda\\tcl\\tcl8.5\\tzdata\\Europe\\Vienna', 'DATA'), ('_MEI\\tcl\\tzdata\\Europe\\Vilnius', 'C:\\Anaconda\\tcl\\tcl8.5\\tzdata\\Europe\\Vilnius', 'DATA'), ('_MEI\\tcl\\tzdata\\Europe\\Volgograd', 'C:\\Anaconda\\tcl\\tcl8.5\\tzdata\\Europe\\Volgograd', 'DATA'), ('_MEI\\tcl\\tzdata\\Europe\\Warsaw', 'C:\\Anaconda\\tcl\\tcl8.5\\tzdata\\Europe\\Warsaw', 'DATA'), ('_MEI\\tcl\\tzdata\\Europe\\Zagreb', 'C:\\Anaconda\\tcl\\tcl8.5\\tzdata\\Europe\\Zagreb', 'DATA'), ('_MEI\\tcl\\tzdata\\Europe\\Zaporozhye', 'C:\\Anaconda\\tcl\\tcl8.5\\tzdata\\Europe\\Zaporozhye', 'DATA'), ('_MEI\\tcl\\tzdata\\Europe\\Zurich', 'C:\\Anaconda\\tcl\\tcl8.5\\tzdata\\Europe\\Zurich', 'DATA'), ('_MEI\\tcl\\tzdata\\Etc\\GMT', 'C:\\Anaconda\\tcl\\tcl8.5\\tzdata\\Etc\\GMT', 'DATA'), ('_MEI\\tcl\\tzdata\\Etc\\GMT+0', 'C:\\Anaconda\\tcl\\tcl8.5\\tzdata\\Etc\\GMT+0', 'DATA'), ('_MEI\\tcl\\tzdata\\Etc\\GMT+1', 'C:\\Anaconda\\tcl\\tcl8.5\\tzdata\\Etc\\GMT+1', 'DATA'), ('_MEI\\tcl\\tzdata\\Etc\\GMT+10', 'C:\\Anaconda\\tcl\\tcl8.5\\tzdata\\Etc\\GMT+10', 'DATA'), ('_MEI\\tcl\\tzdata\\Etc\\GMT+11', 'C:\\Anaconda\\tcl\\tcl8.5\\tzdata\\Etc\\GMT+11', 'DATA'), ('_MEI\\tcl\\tzdata\\Etc\\GMT+12', 'C:\\Anaconda\\tcl\\tcl8.5\\tzdata\\Etc\\GMT+12', 'DATA'), ('_MEI\\tcl\\tzdata\\Etc\\GMT+2', 'C:\\Anaconda\\tcl\\tcl8.5\\tzdata\\Etc\\GMT+2', 'DATA'), ('_MEI\\tcl\\tzdata\\Etc\\GMT+3', 'C:\\Anaconda\\tcl\\tcl8.5\\tzdata\\Etc\\GMT+3', 'DATA'), ('_MEI\\tcl\\tzdata\\Etc\\GMT+4', 'C:\\Anaconda\\tcl\\tcl8.5\\tzdata\\Etc\\GMT+4', 'DATA'), ('_MEI\\tcl\\tzdata\\Etc\\GMT+5', 'C:\\Anaconda\\tcl\\tcl8.5\\tzdata\\Etc\\GMT+5', 'DATA'), ('_MEI\\tcl\\tzdata\\Etc\\GMT+6', 'C:\\Anaconda\\tcl\\tcl8.5\\tzdata\\Etc\\GMT+6', 'DATA'), ('_MEI\\tcl\\tzdata\\Etc\\GMT+7', 'C:\\Anaconda\\tcl\\tcl8.5\\tzdata\\Etc\\GMT+7', 'DATA'), ('_MEI\\tcl\\tzdata\\Etc\\GMT+8', 'C:\\Anaconda\\tcl\\tcl8.5\\tzdata\\Etc\\GMT+8', 'DATA'), ('_MEI\\tcl\\tzdata\\Etc\\GMT+9', 'C:\\Anaconda\\tcl\\tcl8.5\\tzdata\\Etc\\GMT+9', 'DATA'), ('_MEI\\tcl\\tzdata\\Etc\\GMT-0', 'C:\\Anaconda\\tcl\\tcl8.5\\tzdata\\Etc\\GMT-0', 'DATA'), ('_MEI\\tcl\\tzdata\\Etc\\GMT-1', 'C:\\Anaconda\\tcl\\tcl8.5\\tzdata\\Etc\\GMT-1', 'DATA'), ('_MEI\\tcl\\tzdata\\Etc\\GMT-10', 'C:\\Anaconda\\tcl\\tcl8.5\\tzdata\\Etc\\GMT-10', 'DATA'), ('_MEI\\tcl\\tzdata\\Etc\\GMT-11', 'C:\\Anaconda\\tcl\\tcl8.5\\tzdata\\Etc\\GMT-11', 'DATA'), ('_MEI\\tcl\\tzdata\\Etc\\GMT-12', 'C:\\Anaconda\\tcl\\tcl8.5\\tzdata\\Etc\\GMT-12', 'DATA'), ('_MEI\\tcl\\tzdata\\Etc\\GMT-13', 'C:\\Anaconda\\tcl\\tcl8.5\\tzdata\\Etc\\GMT-13', 'DATA'), ('_MEI\\tcl\\tzdata\\Etc\\GMT-14', 'C:\\Anaconda\\tcl\\tcl8.5\\tzdata\\Etc\\GMT-14', 'DATA'), ('_MEI\\tcl\\tzdata\\Etc\\GMT-2', 'C:\\Anaconda\\tcl\\tcl8.5\\tzdata\\Etc\\GMT-2', 'DATA'), ('_MEI\\tcl\\tzdata\\Etc\\GMT-3', 'C:\\Anaconda\\tcl\\tcl8.5\\tzdata\\Etc\\GMT-3', 'DATA'), ('_MEI\\tcl\\tzdata\\Etc\\GMT-4', 'C:\\Anaconda\\tcl\\tcl8.5\\tzdata\\Etc\\GMT-4', 'DATA'), ('_MEI\\tcl\\tzdata\\Etc\\GMT-5', 'C:\\Anaconda\\tcl\\tcl8.5\\tzdata\\Etc\\GMT-5', 'DATA'), ('_MEI\\tcl\\tzdata\\Etc\\GMT-6', 'C:\\Anaconda\\tcl\\tcl8.5\\tzdata\\Etc\\GMT-6', 'DATA'), ('_MEI\\tcl\\tzdata\\Etc\\GMT-7', 'C:\\Anaconda\\tcl\\tcl8.5\\tzdata\\Etc\\GMT-7', 'DATA'), ('_MEI\\tcl\\tzdata\\Etc\\GMT-8', 'C:\\Anaconda\\tcl\\tcl8.5\\tzdata\\Etc\\GMT-8', 'DATA'), ('_MEI\\tcl\\tzdata\\Etc\\GMT-9', 'C:\\Anaconda\\tcl\\tcl8.5\\tzdata\\Etc\\GMT-9', 'DATA'), ('_MEI\\tcl\\tzdata\\Etc\\GMT0', 'C:\\Anaconda\\tcl\\tcl8.5\\tzdata\\Etc\\GMT0', 'DATA'), ('_MEI\\tcl\\tzdata\\Etc\\Greenwich', 'C:\\Anaconda\\tcl\\tcl8.5\\tzdata\\Etc\\Greenwich', 'DATA'), ('_MEI\\tcl\\tzdata\\Etc\\UCT', 'C:\\Anaconda\\tcl\\tcl8.5\\tzdata\\Etc\\UCT', 'DATA'), ('_MEI\\tcl\\tzdata\\Etc\\Universal', 'C:\\Anaconda\\tcl\\tcl8.5\\tzdata\\Etc\\Universal', 'DATA'), ('_MEI\\tcl\\tzdata\\Etc\\UTC', 'C:\\Anaconda\\tcl\\tcl8.5\\tzdata\\Etc\\UTC', 'DATA'), ('_MEI\\tcl\\tzdata\\Etc\\Zulu', 'C:\\Anaconda\\tcl\\tcl8.5\\tzdata\\Etc\\Zulu', 'DATA'), ('_MEI\\tcl\\tzdata\\Chile\\Continental', 'C:\\Anaconda\\tcl\\tcl8.5\\tzdata\\Chile\\Continental', 'DATA'), ('_MEI\\tcl\\tzdata\\Chile\\EasterIsland', 'C:\\Anaconda\\tcl\\tcl8.5\\tzdata\\Chile\\EasterIsland', 'DATA'), ('_MEI\\tcl\\tzdata\\Canada\\Atlantic', 'C:\\Anaconda\\tcl\\tcl8.5\\tzdata\\Canada\\Atlantic', 'DATA'), ('_MEI\\tcl\\tzdata\\Canada\\Central', 'C:\\Anaconda\\tcl\\tcl8.5\\tzdata\\Canada\\Central', 'DATA'), ('_MEI\\tcl\\tzdata\\Canada\\East-Saskatchewan', 'C:\\Anaconda\\tcl\\tcl8.5\\tzdata\\Canada\\East-Saskatchewan', 'DATA'), ('_MEI\\tcl\\tzdata\\Canada\\Eastern', 'C:\\Anaconda\\tcl\\tcl8.5\\tzdata\\Canada\\Eastern', 'DATA'), ('_MEI\\tcl\\tzdata\\Canada\\Mountain', 'C:\\Anaconda\\tcl\\tcl8.5\\tzdata\\Canada\\Mountain', 'DATA'), ('_MEI\\tcl\\tzdata\\Canada\\Newfoundland', 'C:\\Anaconda\\tcl\\tcl8.5\\tzdata\\Canada\\Newfoundland', 'DATA'), ('_MEI\\tcl\\tzdata\\Canada\\Pacific', 'C:\\Anaconda\\tcl\\tcl8.5\\tzdata\\Canada\\Pacific', 'DATA'), ('_MEI\\tcl\\tzdata\\Canada\\Saskatchewan', 'C:\\Anaconda\\tcl\\tcl8.5\\tzdata\\Canada\\Saskatchewan', 'DATA'), ('_MEI\\tcl\\tzdata\\Canada\\Yukon', 'C:\\Anaconda\\tcl\\tcl8.5\\tzdata\\Canada\\Yukon', 'DATA'), ('_MEI\\tcl\\tzdata\\Brazil\\Acre', 'C:\\Anaconda\\tcl\\tcl8.5\\tzdata\\Brazil\\Acre', 'DATA'), ('_MEI\\tcl\\tzdata\\Brazil\\DeNoronha', 'C:\\Anaconda\\tcl\\tcl8.5\\tzdata\\Brazil\\DeNoronha', 'DATA'), ('_MEI\\tcl\\tzdata\\Brazil\\East', 'C:\\Anaconda\\tcl\\tcl8.5\\tzdata\\Brazil\\East', 'DATA'), ('_MEI\\tcl\\tzdata\\Brazil\\West', 'C:\\Anaconda\\tcl\\tcl8.5\\tzdata\\Brazil\\West', 'DATA'), ('_MEI\\tcl\\tzdata\\Australia\\ACT', 'C:\\Anaconda\\tcl\\tcl8.5\\tzdata\\Australia\\ACT', 'DATA'), ('_MEI\\tcl\\tzdata\\Australia\\Adelaide', 'C:\\Anaconda\\tcl\\tcl8.5\\tzdata\\Australia\\Adelaide', 'DATA'), ('_MEI\\tcl\\tzdata\\Australia\\Brisbane', 'C:\\Anaconda\\tcl\\tcl8.5\\tzdata\\Australia\\Brisbane', 'DATA'), ('_MEI\\tcl\\tzdata\\Australia\\Broken_Hill', 'C:\\Anaconda\\tcl\\tcl8.5\\tzdata\\Australia\\Broken_Hill', 'DATA'), ('_MEI\\tcl\\tzdata\\Australia\\Canberra', 'C:\\Anaconda\\tcl\\tcl8.5\\tzdata\\Australia\\Canberra', 'DATA'), ('_MEI\\tcl\\tzdata\\Australia\\Currie', 'C:\\Anaconda\\tcl\\tcl8.5\\tzdata\\Australia\\Currie', 'DATA'), ('_MEI\\tcl\\tzdata\\Australia\\Darwin', 'C:\\Anaconda\\tcl\\tcl8.5\\tzdata\\Australia\\Darwin', 'DATA'), ('_MEI\\tcl\\tzdata\\Australia\\Eucla', 'C:\\Anaconda\\tcl\\tcl8.5\\tzdata\\Australia\\Eucla', 'DATA'), ('_MEI\\tcl\\tzdata\\Australia\\Hobart', 'C:\\Anaconda\\tcl\\tcl8.5\\tzdata\\Australia\\Hobart', 'DATA'), ('_MEI\\tcl\\tzdata\\Australia\\LHI', 'C:\\Anaconda\\tcl\\tcl8.5\\tzdata\\Australia\\LHI', 'DATA'), ('_MEI\\tcl\\tzdata\\Australia\\Lindeman', 'C:\\Anaconda\\tcl\\tcl8.5\\tzdata\\Australia\\Lindeman', 'DATA'), ('_MEI\\tcl\\tzdata\\Australia\\Lord_Howe', 'C:\\Anaconda\\tcl\\tcl8.5\\tzdata\\Australia\\Lord_Howe', 'DATA'), ('_MEI\\tcl\\tzdata\\Australia\\Melbourne', 'C:\\Anaconda\\tcl\\tcl8.5\\tzdata\\Australia\\Melbourne', 'DATA'), ('_MEI\\tcl\\tzdata\\Australia\\North', 'C:\\Anaconda\\tcl\\tcl8.5\\tzdata\\Australia\\North', 'DATA'), ('_MEI\\tcl\\tzdata\\Australia\\NSW', 'C:\\Anaconda\\tcl\\tcl8.5\\tzdata\\Australia\\NSW', 'DATA'), ('_MEI\\tcl\\tzdata\\Australia\\Perth', 'C:\\Anaconda\\tcl\\tcl8.5\\tzdata\\Australia\\Perth', 'DATA'), ('_MEI\\tcl\\tzdata\\Australia\\Queensland', 'C:\\Anaconda\\tcl\\tcl8.5\\tzdata\\Australia\\Queensland', 'DATA'), ('_MEI\\tcl\\tzdata\\Australia\\South', 'C:\\Anaconda\\tcl\\tcl8.5\\tzdata\\Australia\\South', 'DATA'), ('_MEI\\tcl\\tzdata\\Australia\\Sydney', 'C:\\Anaconda\\tcl\\tcl8.5\\tzdata\\Australia\\Sydney', 'DATA'), ('_MEI\\tcl\\tzdata\\Australia\\Tasmania', 'C:\\Anaconda\\tcl\\tcl8.5\\tzdata\\Australia\\Tasmania', 'DATA'), ('_MEI\\tcl\\tzdata\\Australia\\Victoria', 'C:\\Anaconda\\tcl\\tcl8.5\\tzdata\\Australia\\Victoria', 'DATA'), ('_MEI\\tcl\\tzdata\\Australia\\West', 'C:\\Anaconda\\tcl\\tcl8.5\\tzdata\\Australia\\West', 'DATA'), ('_MEI\\tcl\\tzdata\\Australia\\Yancowinna', 'C:\\Anaconda\\tcl\\tcl8.5\\tzdata\\Australia\\Yancowinna', 'DATA'), ('_MEI\\tcl\\tzdata\\Atlantic\\Azores', 'C:\\Anaconda\\tcl\\tcl8.5\\tzdata\\Atlantic\\Azores', 'DATA'), ('_MEI\\tcl\\tzdata\\Atlantic\\Bermuda', 'C:\\Anaconda\\tcl\\tcl8.5\\tzdata\\Atlantic\\Bermuda', 'DATA'), ('_MEI\\tcl\\tzdata\\Atlantic\\Canary', 'C:\\Anaconda\\tcl\\tcl8.5\\tzdata\\Atlantic\\Canary', 'DATA'), ('_MEI\\tcl\\tzdata\\Atlantic\\Cape_Verde', 'C:\\Anaconda\\tcl\\tcl8.5\\tzdata\\Atlantic\\Cape_Verde', 'DATA'), ('_MEI\\tcl\\tzdata\\Atlantic\\Faeroe', 'C:\\Anaconda\\tcl\\tcl8.5\\tzdata\\Atlantic\\Faeroe', 'DATA'), ('_MEI\\tcl\\tzdata\\Atlantic\\Faroe', 'C:\\Anaconda\\tcl\\tcl8.5\\tzdata\\Atlantic\\Faroe', 'DATA'), ('_MEI\\tcl\\tzdata\\Atlantic\\Jan_Mayen', 'C:\\Anaconda\\tcl\\tcl8.5\\tzdata\\Atlantic\\Jan_Mayen', 'DATA'), ('_MEI\\tcl\\tzdata\\Atlantic\\Madeira', 'C:\\Anaconda\\tcl\\tcl8.5\\tzdata\\Atlantic\\Madeira', 'DATA'), ('_MEI\\tcl\\tzdata\\Atlantic\\Reykjavik', 'C:\\Anaconda\\tcl\\tcl8.5\\tzdata\\Atlantic\\Reykjavik', 'DATA'), ('_MEI\\tcl\\tzdata\\Atlantic\\South_Georgia', 'C:\\Anaconda\\tcl\\tcl8.5\\tzdata\\Atlantic\\South_Georgia', 'DATA'), ('_MEI\\tcl\\tzdata\\Atlantic\\Stanley', 'C:\\Anaconda\\tcl\\tcl8.5\\tzdata\\Atlantic\\Stanley', 'DATA'), ('_MEI\\tcl\\tzdata\\Atlantic\\St_Helena', 'C:\\Anaconda\\tcl\\tcl8.5\\tzdata\\Atlantic\\St_Helena', 'DATA'), ('_MEI\\tcl\\tzdata\\Asia\\Aden', 'C:\\Anaconda\\tcl\\tcl8.5\\tzdata\\Asia\\Aden', 'DATA'), ('_MEI\\tcl\\tzdata\\Asia\\Almaty', 'C:\\Anaconda\\tcl\\tcl8.5\\tzdata\\Asia\\Almaty', 'DATA'), ('_MEI\\tcl\\tzdata\\Asia\\Amman', 'C:\\Anaconda\\tcl\\tcl8.5\\tzdata\\Asia\\Amman', 'DATA'), ('_MEI\\tcl\\tzdata\\Asia\\Anadyr', 'C:\\Anaconda\\tcl\\tcl8.5\\tzdata\\Asia\\Anadyr', 'DATA'), ('_MEI\\tcl\\tzdata\\Asia\\Aqtau', 'C:\\Anaconda\\tcl\\tcl8.5\\tzdata\\Asia\\Aqtau', 'DATA'), ('_MEI\\tcl\\tzdata\\Asia\\Aqtobe', 'C:\\Anaconda\\tcl\\tcl8.5\\tzdata\\Asia\\Aqtobe', 'DATA'), ('_MEI\\tcl\\tzdata\\Asia\\Ashgabat', 'C:\\Anaconda\\tcl\\tcl8.5\\tzdata\\Asia\\Ashgabat', 'DATA'), ('_MEI\\tcl\\tzdata\\Asia\\Ashkhabad', 'C:\\Anaconda\\tcl\\tcl8.5\\tzdata\\Asia\\Ashkhabad', 'DATA'), ('_MEI\\tcl\\tzdata\\Asia\\Baghdad', 'C:\\Anaconda\\tcl\\tcl8.5\\tzdata\\Asia\\Baghdad', 'DATA'), ('_MEI\\tcl\\tzdata\\Asia\\Bahrain', 'C:\\Anaconda\\tcl\\tcl8.5\\tzdata\\Asia\\Bahrain', 'DATA'), ('_MEI\\tcl\\tzdata\\Asia\\Baku', 'C:\\Anaconda\\tcl\\tcl8.5\\tzdata\\Asia\\Baku', 'DATA'), ('_MEI\\tcl\\tzdata\\Asia\\Bangkok', 'C:\\Anaconda\\tcl\\tcl8.5\\tzdata\\Asia\\Bangkok', 'DATA'), ('_MEI\\tcl\\tzdata\\Asia\\Beirut', 'C:\\Anaconda\\tcl\\tcl8.5\\tzdata\\Asia\\Beirut', 'DATA'), ('_MEI\\tcl\\tzdata\\Asia\\Bishkek', 'C:\\Anaconda\\tcl\\tcl8.5\\tzdata\\Asia\\Bishkek', 'DATA'), ('_MEI\\tcl\\tzdata\\Asia\\Brunei', 'C:\\Anaconda\\tcl\\tcl8.5\\tzdata\\Asia\\Brunei', 'DATA'), ('_MEI\\tcl\\tzdata\\Asia\\Calcutta', 'C:\\Anaconda\\tcl\\tcl8.5\\tzdata\\Asia\\Calcutta', 'DATA'), ('_MEI\\tcl\\tzdata\\Asia\\Choibalsan', 'C:\\Anaconda\\tcl\\tcl8.5\\tzdata\\Asia\\Choibalsan', 'DATA'), ('_MEI\\tcl\\tzdata\\Asia\\Chongqing', 'C:\\Anaconda\\tcl\\tcl8.5\\tzdata\\Asia\\Chongqing', 'DATA'), ('_MEI\\tcl\\tzdata\\Asia\\Chungking', 'C:\\Anaconda\\tcl\\tcl8.5\\tzdata\\Asia\\Chungking', 'DATA'), ('_MEI\\tcl\\tzdata\\Asia\\Colombo', 'C:\\Anaconda\\tcl\\tcl8.5\\tzdata\\Asia\\Colombo', 'DATA'), ('_MEI\\tcl\\tzdata\\Asia\\Dacca', 'C:\\Anaconda\\tcl\\tcl8.5\\tzdata\\Asia\\Dacca', 'DATA'), ('_MEI\\tcl\\tzdata\\Asia\\Damascus', 'C:\\Anaconda\\tcl\\tcl8.5\\tzdata\\Asia\\Damascus', 'DATA'), ('_MEI\\tcl\\tzdata\\Asia\\Dhaka', 'C:\\Anaconda\\tcl\\tcl8.5\\tzdata\\Asia\\Dhaka', 'DATA'), ('_MEI\\tcl\\tzdata\\Asia\\Dili', 'C:\\Anaconda\\tcl\\tcl8.5\\tzdata\\Asia\\Dili', 'DATA'), ('_MEI\\tcl\\tzdata\\Asia\\Dubai', 'C:\\Anaconda\\tcl\\tcl8.5\\tzdata\\Asia\\Dubai', 'DATA'), ('_MEI\\tcl\\tzdata\\Asia\\Dushanbe', 'C:\\Anaconda\\tcl\\tcl8.5\\tzdata\\Asia\\Dushanbe', 'DATA'), ('_MEI\\tcl\\tzdata\\Asia\\Gaza', 'C:\\Anaconda\\tcl\\tcl8.5\\tzdata\\Asia\\Gaza', 'DATA'), ('_MEI\\tcl\\tzdata\\Asia\\Harbin', 'C:\\Anaconda\\tcl\\tcl8.5\\tzdata\\Asia\\Harbin', 'DATA'), ('_MEI\\tcl\\tzdata\\Asia\\Hebron', 'C:\\Anaconda\\tcl\\tcl8.5\\tzdata\\Asia\\Hebron', 'DATA'), ('_MEI\\tcl\\tzdata\\Asia\\Hong_Kong', 'C:\\Anaconda\\tcl\\tcl8.5\\tzdata\\Asia\\Hong_Kong', 'DATA'), ('_MEI\\tcl\\tzdata\\Asia\\Hovd', 'C:\\Anaconda\\tcl\\tcl8.5\\tzdata\\Asia\\Hovd', 'DATA'), ('_MEI\\tcl\\tzdata\\Asia\\Ho_Chi_Minh', 'C:\\Anaconda\\tcl\\tcl8.5\\tzdata\\Asia\\Ho_Chi_Minh', 'DATA'), ('_MEI\\tcl\\tzdata\\Asia\\Irkutsk', 'C:\\Anaconda\\tcl\\tcl8.5\\tzdata\\Asia\\Irkutsk', 'DATA'), ('_MEI\\tcl\\tzdata\\Asia\\Istanbul', 'C:\\Anaconda\\tcl\\tcl8.5\\tzdata\\Asia\\Istanbul', 'DATA'), ('_MEI\\tcl\\tzdata\\Asia\\Jakarta', 'C:\\Anaconda\\tcl\\tcl8.5\\tzdata\\Asia\\Jakarta', 'DATA'), ('_MEI\\tcl\\tzdata\\Asia\\Jayapura', 'C:\\Anaconda\\tcl\\tcl8.5\\tzdata\\Asia\\Jayapura', 'DATA'), ('_MEI\\tcl\\tzdata\\Asia\\Jerusalem', 'C:\\Anaconda\\tcl\\tcl8.5\\tzdata\\Asia\\Jerusalem', 'DATA'), ('_MEI\\tcl\\tzdata\\Asia\\Kabul', 'C:\\Anaconda\\tcl\\tcl8.5\\tzdata\\Asia\\Kabul', 'DATA'), ('_MEI\\tcl\\tzdata\\Asia\\Kamchatka', 'C:\\Anaconda\\tcl\\tcl8.5\\tzdata\\Asia\\Kamchatka', 'DATA'), ('_MEI\\tcl\\tzdata\\Asia\\Karachi', 'C:\\Anaconda\\tcl\\tcl8.5\\tzdata\\Asia\\Karachi', 'DATA'), ('_MEI\\tcl\\tzdata\\Asia\\Kashgar', 'C:\\Anaconda\\tcl\\tcl8.5\\tzdata\\Asia\\Kashgar', 'DATA'), ('_MEI\\tcl\\tzdata\\Asia\\Kathmandu', 'C:\\Anaconda\\tcl\\tcl8.5\\tzdata\\Asia\\Kathmandu', 'DATA'), ('_MEI\\tcl\\tzdata\\Asia\\Katmandu', 'C:\\Anaconda\\tcl\\tcl8.5\\tzdata\\Asia\\Katmandu', 'DATA'), ('_MEI\\tcl\\tzdata\\Asia\\Khandyga', 'C:\\Anaconda\\tcl\\tcl8.5\\tzdata\\Asia\\Khandyga', 'DATA'), ('_MEI\\tcl\\tzdata\\Asia\\Kolkata', 'C:\\Anaconda\\tcl\\tcl8.5\\tzdata\\Asia\\Kolkata', 'DATA'), ('_MEI\\tcl\\tzdata\\Asia\\Krasnoyarsk', 'C:\\Anaconda\\tcl\\tcl8.5\\tzdata\\Asia\\Krasnoyarsk', 'DATA'), ('_MEI\\tcl\\tzdata\\Asia\\Kuala_Lumpur', 'C:\\Anaconda\\tcl\\tcl8.5\\tzdata\\Asia\\Kuala_Lumpur', 'DATA'), ('_MEI\\tcl\\tzdata\\Asia\\Kuching', 'C:\\Anaconda\\tcl\\tcl8.5\\tzdata\\Asia\\Kuching', 'DATA'), ('_MEI\\tcl\\tzdata\\Asia\\Kuwait', 'C:\\Anaconda\\tcl\\tcl8.5\\tzdata\\Asia\\Kuwait', 'DATA'), ('_MEI\\tcl\\tzdata\\Asia\\Macao', 'C:\\Anaconda\\tcl\\tcl8.5\\tzdata\\Asia\\Macao', 'DATA'), ('_MEI\\tcl\\tzdata\\Asia\\Macau', 'C:\\Anaconda\\tcl\\tcl8.5\\tzdata\\Asia\\Macau', 'DATA'), ('_MEI\\tcl\\tzdata\\Asia\\Magadan', 'C:\\Anaconda\\tcl\\tcl8.5\\tzdata\\Asia\\Magadan', 'DATA'), ('_MEI\\tcl\\tzdata\\Asia\\Makassar', 'C:\\Anaconda\\tcl\\tcl8.5\\tzdata\\Asia\\Makassar', 'DATA'), ('_MEI\\tcl\\tzdata\\Asia\\Manila', 'C:\\Anaconda\\tcl\\tcl8.5\\tzdata\\Asia\\Manila', 'DATA'), ('_MEI\\tcl\\tzdata\\Asia\\Muscat', 'C:\\Anaconda\\tcl\\tcl8.5\\tzdata\\Asia\\Muscat', 'DATA'), ('_MEI\\tcl\\tzdata\\Asia\\Nicosia', 'C:\\Anaconda\\tcl\\tcl8.5\\tzdata\\Asia\\Nicosia', 'DATA'), ('_MEI\\tcl\\tzdata\\Asia\\Novokuznetsk', 'C:\\Anaconda\\tcl\\tcl8.5\\tzdata\\Asia\\Novokuznetsk', 'DATA'), ('_MEI\\tcl\\tzdata\\Asia\\Novosibirsk', 'C:\\Anaconda\\tcl\\tcl8.5\\tzdata\\Asia\\Novosibirsk', 'DATA'), ('_MEI\\tcl\\tzdata\\Asia\\Omsk', 'C:\\Anaconda\\tcl\\tcl8.5\\tzdata\\Asia\\Omsk', 'DATA'), ('_MEI\\tcl\\tzdata\\Asia\\Oral', 'C:\\Anaconda\\tcl\\tcl8.5\\tzdata\\Asia\\Oral', 'DATA'), ('_MEI\\tcl\\tzdata\\Asia\\Phnom_Penh', 'C:\\Anaconda\\tcl\\tcl8.5\\tzdata\\Asia\\Phnom_Penh', 'DATA'), ('_MEI\\tcl\\tzdata\\Asia\\Pontianak', 'C:\\Anaconda\\tcl\\tcl8.5\\tzdata\\Asia\\Pontianak', 'DATA'), ('_MEI\\tcl\\tzdata\\Asia\\Pyongyang', 'C:\\Anaconda\\tcl\\tcl8.5\\tzdata\\Asia\\Pyongyang', 'DATA'), ('_MEI\\tcl\\tzdata\\Asia\\Qatar', 'C:\\Anaconda\\tcl\\tcl8.5\\tzdata\\Asia\\Qatar', 'DATA'), ('_MEI\\tcl\\tzdata\\Asia\\Qyzylorda', 'C:\\Anaconda\\tcl\\tcl8.5\\tzdata\\Asia\\Qyzylorda', 'DATA'), ('_MEI\\tcl\\tzdata\\Asia\\Rangoon', 'C:\\Anaconda\\tcl\\tcl8.5\\tzdata\\Asia\\Rangoon', 'DATA'), ('_MEI\\tcl\\tzdata\\Asia\\Riyadh', 'C:\\Anaconda\\tcl\\tcl8.5\\tzdata\\Asia\\Riyadh', 'DATA'), ('_MEI\\tcl\\tzdata\\Asia\\Saigon', 'C:\\Anaconda\\tcl\\tcl8.5\\tzdata\\Asia\\Saigon', 'DATA'), ('_MEI\\tcl\\tzdata\\Asia\\Sakhalin', 'C:\\Anaconda\\tcl\\tcl8.5\\tzdata\\Asia\\Sakhalin', 'DATA'), ('_MEI\\tcl\\tzdata\\Asia\\Samarkand', 'C:\\Anaconda\\tcl\\tcl8.5\\tzdata\\Asia\\Samarkand', 'DATA'), ('_MEI\\tcl\\tzdata\\Asia\\Seoul', 'C:\\Anaconda\\tcl\\tcl8.5\\tzdata\\Asia\\Seoul', 'DATA'), ('_MEI\\tcl\\tzdata\\Asia\\Shanghai', 'C:\\Anaconda\\tcl\\tcl8.5\\tzdata\\Asia\\Shanghai', 'DATA'), ('_MEI\\tcl\\tzdata\\Asia\\Singapore', 'C:\\Anaconda\\tcl\\tcl8.5\\tzdata\\Asia\\Singapore', 'DATA'), ('_MEI\\tcl\\tzdata\\Asia\\Taipei', 'C:\\Anaconda\\tcl\\tcl8.5\\tzdata\\Asia\\Taipei', 'DATA'), ('_MEI\\tcl\\tzdata\\Asia\\Tashkent', 'C:\\Anaconda\\tcl\\tcl8.5\\tzdata\\Asia\\Tashkent', 'DATA'), ('_MEI\\tcl\\tzdata\\Asia\\Tbilisi', 'C:\\Anaconda\\tcl\\tcl8.5\\tzdata\\Asia\\Tbilisi', 'DATA'), ('_MEI\\tcl\\tzdata\\Asia\\Tehran', 'C:\\Anaconda\\tcl\\tcl8.5\\tzdata\\Asia\\Tehran', 'DATA'), ('_MEI\\tcl\\tzdata\\Asia\\Tel_Aviv', 'C:\\Anaconda\\tcl\\tcl8.5\\tzdata\\Asia\\Tel_Aviv', 'DATA'), ('_MEI\\tcl\\tzdata\\Asia\\Thimbu', 'C:\\Anaconda\\tcl\\tcl8.5\\tzdata\\Asia\\Thimbu', 'DATA'), ('_MEI\\tcl\\tzdata\\Asia\\Thimphu', 'C:\\Anaconda\\tcl\\tcl8.5\\tzdata\\Asia\\Thimphu', 'DATA'), ('_MEI\\tcl\\tzdata\\Asia\\Tokyo', 'C:\\Anaconda\\tcl\\tcl8.5\\tzdata\\Asia\\Tokyo', 'DATA'), ('_MEI\\tcl\\tzdata\\Asia\\Ujung_Pandang', 'C:\\Anaconda\\tcl\\tcl8.5\\tzdata\\Asia\\Ujung_Pandang', 'DATA'), ('_MEI\\tcl\\tzdata\\Asia\\Ulaanbaatar', 'C:\\Anaconda\\tcl\\tcl8.5\\tzdata\\Asia\\Ulaanbaatar', 'DATA'), ('_MEI\\tcl\\tzdata\\Asia\\Ulan_Bator', 'C:\\Anaconda\\tcl\\tcl8.5\\tzdata\\Asia\\Ulan_Bator', 'DATA'), ('_MEI\\tcl\\tzdata\\Asia\\Urumqi', 'C:\\Anaconda\\tcl\\tcl8.5\\tzdata\\Asia\\Urumqi', 'DATA'), ('_MEI\\tcl\\tzdata\\Asia\\Ust-Nera', 'C:\\Anaconda\\tcl\\tcl8.5\\tzdata\\Asia\\Ust-Nera', 'DATA'), ('_MEI\\tcl\\tzdata\\Asia\\Vientiane', 'C:\\Anaconda\\tcl\\tcl8.5\\tzdata\\Asia\\Vientiane', 'DATA'), ('_MEI\\tcl\\tzdata\\Asia\\Vladivostok', 'C:\\Anaconda\\tcl\\tcl8.5\\tzdata\\Asia\\Vladivostok', 'DATA'), ('_MEI\\tcl\\tzdata\\Asia\\Yakutsk', 'C:\\Anaconda\\tcl\\tcl8.5\\tzdata\\Asia\\Yakutsk', 'DATA'), ('_MEI\\tcl\\tzdata\\Asia\\Yekaterinburg', 'C:\\Anaconda\\tcl\\tcl8.5\\tzdata\\Asia\\Yekaterinburg', 'DATA'), ('_MEI\\tcl\\tzdata\\Asia\\Yerevan', 'C:\\Anaconda\\tcl\\tcl8.5\\tzdata\\Asia\\Yerevan', 'DATA'), ('_MEI\\tcl\\tzdata\\Arctic\\Longyearbyen', 'C:\\Anaconda\\tcl\\tcl8.5\\tzdata\\Arctic\\Longyearbyen', 'DATA'), ('_MEI\\tcl\\tzdata\\Antarctica\\Casey', 'C:\\Anaconda\\tcl\\tcl8.5\\tzdata\\Antarctica\\Casey', 'DATA'), ('_MEI\\tcl\\tzdata\\Antarctica\\Davis', 'C:\\Anaconda\\tcl\\tcl8.5\\tzdata\\Antarctica\\Davis', 'DATA'), ('_MEI\\tcl\\tzdata\\Antarctica\\DumontDUrville', 'C:\\Anaconda\\tcl\\tcl8.5\\tzdata\\Antarctica\\DumontDUrville', 'DATA'), ('_MEI\\tcl\\tzdata\\Antarctica\\Macquarie', 'C:\\Anaconda\\tcl\\tcl8.5\\tzdata\\Antarctica\\Macquarie', 'DATA'), ('_MEI\\tcl\\tzdata\\Antarctica\\Mawson', 'C:\\Anaconda\\tcl\\tcl8.5\\tzdata\\Antarctica\\Mawson', 'DATA'), ('_MEI\\tcl\\tzdata\\Antarctica\\McMurdo', 'C:\\Anaconda\\tcl\\tcl8.5\\tzdata\\Antarctica\\McMurdo', 'DATA'), ('_MEI\\tcl\\tzdata\\Antarctica\\Palmer', 'C:\\Anaconda\\tcl\\tcl8.5\\tzdata\\Antarctica\\Palmer', 'DATA'), ('_MEI\\tcl\\tzdata\\Antarctica\\Rothera', 'C:\\Anaconda\\tcl\\tcl8.5\\tzdata\\Antarctica\\Rothera', 'DATA'), ('_MEI\\tcl\\tzdata\\Antarctica\\South_Pole', 'C:\\Anaconda\\tcl\\tcl8.5\\tzdata\\Antarctica\\South_Pole', 'DATA'), ('_MEI\\tcl\\tzdata\\Antarctica\\Syowa', 'C:\\Anaconda\\tcl\\tcl8.5\\tzdata\\Antarctica\\Syowa', 'DATA'), ('_MEI\\tcl\\tzdata\\Antarctica\\Vostok', 'C:\\Anaconda\\tcl\\tcl8.5\\tzdata\\Antarctica\\Vostok', 'DATA'), ('_MEI\\tcl\\tzdata\\America\\Adak', 'C:\\Anaconda\\tcl\\tcl8.5\\tzdata\\America\\Adak', 'DATA'), ('_MEI\\tcl\\tzdata\\America\\Anchorage', 'C:\\Anaconda\\tcl\\tcl8.5\\tzdata\\America\\Anchorage', 'DATA'), ('_MEI\\tcl\\tzdata\\America\\Anguilla', 'C:\\Anaconda\\tcl\\tcl8.5\\tzdata\\America\\Anguilla', 'DATA'), ('_MEI\\tcl\\tzdata\\America\\Antigua', 'C:\\Anaconda\\tcl\\tcl8.5\\tzdata\\America\\Antigua', 'DATA'), ('_MEI\\tcl\\tzdata\\America\\Araguaina', 'C:\\Anaconda\\tcl\\tcl8.5\\tzdata\\America\\Araguaina', 'DATA'), ('_MEI\\tcl\\tzdata\\America\\Aruba', 'C:\\Anaconda\\tcl\\tcl8.5\\tzdata\\America\\Aruba', 'DATA'), ('_MEI\\tcl\\tzdata\\America\\Asuncion', 'C:\\Anaconda\\tcl\\tcl8.5\\tzdata\\America\\Asuncion', 'DATA'), ('_MEI\\tcl\\tzdata\\America\\Atikokan', 'C:\\Anaconda\\tcl\\tcl8.5\\tzdata\\America\\Atikokan', 'DATA'), ('_MEI\\tcl\\tzdata\\America\\Atka', 'C:\\Anaconda\\tcl\\tcl8.5\\tzdata\\America\\Atka', 'DATA'), ('_MEI\\tcl\\tzdata\\America\\Bahia', 'C:\\Anaconda\\tcl\\tcl8.5\\tzdata\\America\\Bahia', 'DATA'), ('_MEI\\tcl\\tzdata\\America\\Bahia_Banderas', 'C:\\Anaconda\\tcl\\tcl8.5\\tzdata\\America\\Bahia_Banderas', 'DATA'), ('_MEI\\tcl\\tzdata\\America\\Barbados', 'C:\\Anaconda\\tcl\\tcl8.5\\tzdata\\America\\Barbados', 'DATA'), ('_MEI\\tcl\\tzdata\\America\\Belem', 'C:\\Anaconda\\tcl\\tcl8.5\\tzdata\\America\\Belem', 'DATA'), ('_MEI\\tcl\\tzdata\\America\\Belize', 'C:\\Anaconda\\tcl\\tcl8.5\\tzdata\\America\\Belize', 'DATA'), ('_MEI\\tcl\\tzdata\\America\\Blanc-Sablon', 'C:\\Anaconda\\tcl\\tcl8.5\\tzdata\\America\\Blanc-Sablon', 'DATA'), ('_MEI\\tcl\\tzdata\\America\\Boa_Vista', 'C:\\Anaconda\\tcl\\tcl8.5\\tzdata\\America\\Boa_Vista', 'DATA'), ('_MEI\\tcl\\tzdata\\America\\Bogota', 'C:\\Anaconda\\tcl\\tcl8.5\\tzdata\\America\\Bogota', 'DATA'), ('_MEI\\tcl\\tzdata\\America\\Boise', 'C:\\Anaconda\\tcl\\tcl8.5\\tzdata\\America\\Boise', 'DATA'), ('_MEI\\tcl\\tzdata\\America\\Buenos_Aires', 'C:\\Anaconda\\tcl\\tcl8.5\\tzdata\\America\\Buenos_Aires', 'DATA'), ('_MEI\\tcl\\tzdata\\America\\Cambridge_Bay', 'C:\\Anaconda\\tcl\\tcl8.5\\tzdata\\America\\Cambridge_Bay', 'DATA'), ('_MEI\\tcl\\tzdata\\America\\Campo_Grande', 'C:\\Anaconda\\tcl\\tcl8.5\\tzdata\\America\\Campo_Grande', 'DATA'), ('_MEI\\tcl\\tzdata\\America\\Cancun', 'C:\\Anaconda\\tcl\\tcl8.5\\tzdata\\America\\Cancun', 'DATA'), ('_MEI\\tcl\\tzdata\\America\\Caracas', 'C:\\Anaconda\\tcl\\tcl8.5\\tzdata\\America\\Caracas', 'DATA'), ('_MEI\\tcl\\tzdata\\America\\Catamarca', 'C:\\Anaconda\\tcl\\tcl8.5\\tzdata\\America\\Catamarca', 'DATA'), ('_MEI\\tcl\\tzdata\\America\\Cayenne', 'C:\\Anaconda\\tcl\\tcl8.5\\tzdata\\America\\Cayenne', 'DATA'), ('_MEI\\tcl\\tzdata\\America\\Cayman', 'C:\\Anaconda\\tcl\\tcl8.5\\tzdata\\America\\Cayman', 'DATA'), ('_MEI\\tcl\\tzdata\\America\\Chicago', 'C:\\Anaconda\\tcl\\tcl8.5\\tzdata\\America\\Chicago', 'DATA'), ('_MEI\\tcl\\tzdata\\America\\Chihuahua', 'C:\\Anaconda\\tcl\\tcl8.5\\tzdata\\America\\Chihuahua', 'DATA'), ('_MEI\\tcl\\tzdata\\America\\Coral_Harbour', 'C:\\Anaconda\\tcl\\tcl8.5\\tzdata\\America\\Coral_Harbour', 'DATA'), ('_MEI\\tcl\\tzdata\\America\\Cordoba', 'C:\\Anaconda\\tcl\\tcl8.5\\tzdata\\America\\Cordoba', 'DATA'), ('_MEI\\tcl\\tzdata\\America\\Costa_Rica', 'C:\\Anaconda\\tcl\\tcl8.5\\tzdata\\America\\Costa_Rica', 'DATA'), ('_MEI\\tcl\\tzdata\\America\\Creston', 'C:\\Anaconda\\tcl\\tcl8.5\\tzdata\\America\\Creston', 'DATA'), ('_MEI\\tcl\\tzdata\\America\\Cuiaba', 'C:\\Anaconda\\tcl\\tcl8.5\\tzdata\\America\\Cuiaba', 'DATA'), ('_MEI\\tcl\\tzdata\\America\\Curacao', 'C:\\Anaconda\\tcl\\tcl8.5\\tzdata\\America\\Curacao', 'DATA'), ('_MEI\\tcl\\tzdata\\America\\Danmarkshavn', 'C:\\Anaconda\\tcl\\tcl8.5\\tzdata\\America\\Danmarkshavn', 'DATA'), ('_MEI\\tcl\\tzdata\\America\\Dawson', 'C:\\Anaconda\\tcl\\tcl8.5\\tzdata\\America\\Dawson', 'DATA'), ('_MEI\\tcl\\tzdata\\America\\Dawson_Creek', 'C:\\Anaconda\\tcl\\tcl8.5\\tzdata\\America\\Dawson_Creek', 'DATA'), ('_MEI\\tcl\\tzdata\\America\\Denver', 'C:\\Anaconda\\tcl\\tcl8.5\\tzdata\\America\\Denver', 'DATA'), ('_MEI\\tcl\\tzdata\\America\\Detroit', 'C:\\Anaconda\\tcl\\tcl8.5\\tzdata\\America\\Detroit', 'DATA'), ('_MEI\\tcl\\tzdata\\America\\Dominica', 'C:\\Anaconda\\tcl\\tcl8.5\\tzdata\\America\\Dominica', 'DATA'), ('_MEI\\tcl\\tzdata\\America\\Edmonton', 'C:\\Anaconda\\tcl\\tcl8.5\\tzdata\\America\\Edmonton', 'DATA'), ('_MEI\\tcl\\tzdata\\America\\Eirunepe', 'C:\\Anaconda\\tcl\\tcl8.5\\tzdata\\America\\Eirunepe', 'DATA'), ('_MEI\\tcl\\tzdata\\America\\El_Salvador', 'C:\\Anaconda\\tcl\\tcl8.5\\tzdata\\America\\El_Salvador', 'DATA'), ('_MEI\\tcl\\tzdata\\America\\Ensenada', 'C:\\Anaconda\\tcl\\tcl8.5\\tzdata\\America\\Ensenada', 'DATA'), ('_MEI\\tcl\\tzdata\\America\\Fortaleza', 'C:\\Anaconda\\tcl\\tcl8.5\\tzdata\\America\\Fortaleza', 'DATA'), ('_MEI\\tcl\\tzdata\\America\\Fort_Wayne', 'C:\\Anaconda\\tcl\\tcl8.5\\tzdata\\America\\Fort_Wayne', 'DATA'), ('_MEI\\tcl\\tzdata\\America\\Glace_Bay', 'C:\\Anaconda\\tcl\\tcl8.5\\tzdata\\America\\Glace_Bay', 'DATA'), ('_MEI\\tcl\\tzdata\\America\\Godthab', 'C:\\Anaconda\\tcl\\tcl8.5\\tzdata\\America\\Godthab', 'DATA'), ('_MEI\\tcl\\tzdata\\America\\Goose_Bay', 'C:\\Anaconda\\tcl\\tcl8.5\\tzdata\\America\\Goose_Bay', 'DATA'), ('_MEI\\tcl\\tzdata\\America\\Grand_Turk', 'C:\\Anaconda\\tcl\\tcl8.5\\tzdata\\America\\Grand_Turk', 'DATA'), ('_MEI\\tcl\\tzdata\\America\\Grenada', 'C:\\Anaconda\\tcl\\tcl8.5\\tzdata\\America\\Grenada', 'DATA'), ('_MEI\\tcl\\tzdata\\America\\Guadeloupe', 'C:\\Anaconda\\tcl\\tcl8.5\\tzdata\\America\\Guadeloupe', 'DATA'), ('_MEI\\tcl\\tzdata\\America\\Guatemala', 'C:\\Anaconda\\tcl\\tcl8.5\\tzdata\\America\\Guatemala', 'DATA'), ('_MEI\\tcl\\tzdata\\America\\Guayaquil', 'C:\\Anaconda\\tcl\\tcl8.5\\tzdata\\America\\Guayaquil', 'DATA'), ('_MEI\\tcl\\tzdata\\America\\Guyana', 'C:\\Anaconda\\tcl\\tcl8.5\\tzdata\\America\\Guyana', 'DATA'), ('_MEI\\tcl\\tzdata\\America\\Halifax', 'C:\\Anaconda\\tcl\\tcl8.5\\tzdata\\America\\Halifax', 'DATA'), ('_MEI\\tcl\\tzdata\\America\\Havana', 'C:\\Anaconda\\tcl\\tcl8.5\\tzdata\\America\\Havana', 'DATA'), ('_MEI\\tcl\\tzdata\\America\\Hermosillo', 'C:\\Anaconda\\tcl\\tcl8.5\\tzdata\\America\\Hermosillo', 'DATA'), ('_MEI\\tcl\\tzdata\\America\\Indianapolis', 'C:\\Anaconda\\tcl\\tcl8.5\\tzdata\\America\\Indianapolis', 'DATA'), ('_MEI\\tcl\\tzdata\\America\\Inuvik', 'C:\\Anaconda\\tcl\\tcl8.5\\tzdata\\America\\Inuvik', 'DATA'), ('_MEI\\tcl\\tzdata\\America\\Iqaluit', 'C:\\Anaconda\\tcl\\tcl8.5\\tzdata\\America\\Iqaluit', 'DATA'), ('_MEI\\tcl\\tzdata\\America\\Jamaica', 'C:\\Anaconda\\tcl\\tcl8.5\\tzdata\\America\\Jamaica', 'DATA'), ('_MEI\\tcl\\tzdata\\America\\Jujuy', 'C:\\Anaconda\\tcl\\tcl8.5\\tzdata\\America\\Jujuy', 'DATA'), ('_MEI\\tcl\\tzdata\\America\\Juneau', 'C:\\Anaconda\\tcl\\tcl8.5\\tzdata\\America\\Juneau', 'DATA'), ('_MEI\\tcl\\tzdata\\America\\Knox_IN', 'C:\\Anaconda\\tcl\\tcl8.5\\tzdata\\America\\Knox_IN', 'DATA'), ('_MEI\\tcl\\tzdata\\America\\Kralendijk', 'C:\\Anaconda\\tcl\\tcl8.5\\tzdata\\America\\Kralendijk', 'DATA'), ('_MEI\\tcl\\tzdata\\America\\La_Paz', 'C:\\Anaconda\\tcl\\tcl8.5\\tzdata\\America\\La_Paz', 'DATA'), ('_MEI\\tcl\\tzdata\\America\\Lima', 'C:\\Anaconda\\tcl\\tcl8.5\\tzdata\\America\\Lima', 'DATA'), ('_MEI\\tcl\\tzdata\\America\\Los_Angeles', 'C:\\Anaconda\\tcl\\tcl8.5\\tzdata\\America\\Los_Angeles', 'DATA'), ('_MEI\\tcl\\tzdata\\America\\Louisville', 'C:\\Anaconda\\tcl\\tcl8.5\\tzdata\\America\\Louisville', 'DATA'), ('_MEI\\tcl\\tzdata\\America\\Lower_Princes', 'C:\\Anaconda\\tcl\\tcl8.5\\tzdata\\America\\Lower_Princes', 'DATA'), ('_MEI\\tcl\\tzdata\\America\\Maceio', 'C:\\Anaconda\\tcl\\tcl8.5\\tzdata\\America\\Maceio', 'DATA'), ('_MEI\\tcl\\tzdata\\America\\Managua', 'C:\\Anaconda\\tcl\\tcl8.5\\tzdata\\America\\Managua', 'DATA'), ('_MEI\\tcl\\tzdata\\America\\Manaus', 'C:\\Anaconda\\tcl\\tcl8.5\\tzdata\\America\\Manaus', 'DATA'), ('_MEI\\tcl\\tzdata\\America\\Marigot', 'C:\\Anaconda\\tcl\\tcl8.5\\tzdata\\America\\Marigot', 'DATA'), ('_MEI\\tcl\\tzdata\\America\\Martinique', 'C:\\Anaconda\\tcl\\tcl8.5\\tzdata\\America\\Martinique', 'DATA'), ('_MEI\\tcl\\tzdata\\America\\Matamoros', 'C:\\Anaconda\\tcl\\tcl8.5\\tzdata\\America\\Matamoros', 'DATA'), ('_MEI\\tcl\\tzdata\\America\\Mazatlan', 'C:\\Anaconda\\tcl\\tcl8.5\\tzdata\\America\\Mazatlan', 'DATA'), ('_MEI\\tcl\\tzdata\\America\\Mendoza', 'C:\\Anaconda\\tcl\\tcl8.5\\tzdata\\America\\Mendoza', 'DATA'), ('_MEI\\tcl\\tzdata\\America\\Menominee', 'C:\\Anaconda\\tcl\\tcl8.5\\tzdata\\America\\Menominee', 'DATA'), ('_MEI\\tcl\\tzdata\\America\\Merida', 'C:\\Anaconda\\tcl\\tcl8.5\\tzdata\\America\\Merida', 'DATA'), ('_MEI\\tcl\\tzdata\\America\\Metlakatla', 'C:\\Anaconda\\tcl\\tcl8.5\\tzdata\\America\\Metlakatla', 'DATA'), ('_MEI\\tcl\\tzdata\\America\\Mexico_City', 'C:\\Anaconda\\tcl\\tcl8.5\\tzdata\\America\\Mexico_City', 'DATA'), ('_MEI\\tcl\\tzdata\\America\\Miquelon', 'C:\\Anaconda\\tcl\\tcl8.5\\tzdata\\America\\Miquelon', 'DATA'), ('_MEI\\tcl\\tzdata\\America\\Moncton', 'C:\\Anaconda\\tcl\\tcl8.5\\tzdata\\America\\Moncton', 'DATA'), ('_MEI\\tcl\\tzdata\\America\\Monterrey', 'C:\\Anaconda\\tcl\\tcl8.5\\tzdata\\America\\Monterrey', 'DATA'), ('_MEI\\tcl\\tzdata\\America\\Montevideo', 'C:\\Anaconda\\tcl\\tcl8.5\\tzdata\\America\\Montevideo', 'DATA'), ('_MEI\\tcl\\tzdata\\America\\Montreal', 'C:\\Anaconda\\tcl\\tcl8.5\\tzdata\\America\\Montreal', 'DATA'), ('_MEI\\tcl\\tzdata\\America\\Montserrat', 'C:\\Anaconda\\tcl\\tcl8.5\\tzdata\\America\\Montserrat', 'DATA'), ('_MEI\\tcl\\tzdata\\America\\Nassau', 'C:\\Anaconda\\tcl\\tcl8.5\\tzdata\\America\\Nassau', 'DATA'), ('_MEI\\tcl\\tzdata\\America\\New_York', 'C:\\Anaconda\\tcl\\tcl8.5\\tzdata\\America\\New_York', 'DATA'), ('_MEI\\tcl\\tzdata\\America\\Nipigon', 'C:\\Anaconda\\tcl\\tcl8.5\\tzdata\\America\\Nipigon', 'DATA'), ('_MEI\\tcl\\tzdata\\America\\Nome', 'C:\\Anaconda\\tcl\\tcl8.5\\tzdata\\America\\Nome', 'DATA'), ('_MEI\\tcl\\tzdata\\America\\Noronha', 'C:\\Anaconda\\tcl\\tcl8.5\\tzdata\\America\\Noronha', 'DATA'), ('_MEI\\tcl\\tzdata\\America\\Ojinaga', 'C:\\Anaconda\\tcl\\tcl8.5\\tzdata\\America\\Ojinaga', 'DATA'), ('_MEI\\tcl\\tzdata\\America\\Panama', 'C:\\Anaconda\\tcl\\tcl8.5\\tzdata\\America\\Panama', 'DATA'), ('_MEI\\tcl\\tzdata\\America\\Pangnirtung', 'C:\\Anaconda\\tcl\\tcl8.5\\tzdata\\America\\Pangnirtung', 'DATA'), ('_MEI\\tcl\\tzdata\\America\\Paramaribo', 'C:\\Anaconda\\tcl\\tcl8.5\\tzdata\\America\\Paramaribo', 'DATA'), ('_MEI\\tcl\\tzdata\\America\\Phoenix', 'C:\\Anaconda\\tcl\\tcl8.5\\tzdata\\America\\Phoenix', 'DATA'), ('_MEI\\tcl\\tzdata\\America\\Port-au-Prince', 'C:\\Anaconda\\tcl\\tcl8.5\\tzdata\\America\\Port-au-Prince', 'DATA'), ('_MEI\\tcl\\tzdata\\America\\Porto_Acre', 'C:\\Anaconda\\tcl\\tcl8.5\\tzdata\\America\\Porto_Acre', 'DATA'), ('_MEI\\tcl\\tzdata\\America\\Porto_Velho', 'C:\\Anaconda\\tcl\\tcl8.5\\tzdata\\America\\Porto_Velho', 'DATA'), ('_MEI\\tcl\\tzdata\\America\\Port_of_Spain', 'C:\\Anaconda\\tcl\\tcl8.5\\tzdata\\America\\Port_of_Spain', 'DATA'), ('_MEI\\tcl\\tzdata\\America\\Puerto_Rico', 'C:\\Anaconda\\tcl\\tcl8.5\\tzdata\\America\\Puerto_Rico', 'DATA'), ('_MEI\\tcl\\tzdata\\America\\Rainy_River', 'C:\\Anaconda\\tcl\\tcl8.5\\tzdata\\America\\Rainy_River', 'DATA'), ('_MEI\\tcl\\tzdata\\America\\Rankin_Inlet', 'C:\\Anaconda\\tcl\\tcl8.5\\tzdata\\America\\Rankin_Inlet', 'DATA'), ('_MEI\\tcl\\tzdata\\America\\Recife', 'C:\\Anaconda\\tcl\\tcl8.5\\tzdata\\America\\Recife', 'DATA'), ('_MEI\\tcl\\tzdata\\America\\Regina', 'C:\\Anaconda\\tcl\\tcl8.5\\tzdata\\America\\Regina', 'DATA'), ('_MEI\\tcl\\tzdata\\America\\Resolute', 'C:\\Anaconda\\tcl\\tcl8.5\\tzdata\\America\\Resolute', 'DATA'), ('_MEI\\tcl\\tzdata\\America\\Rio_Branco', 'C:\\Anaconda\\tcl\\tcl8.5\\tzdata\\America\\Rio_Branco', 'DATA'), ('_MEI\\tcl\\tzdata\\America\\Rosario', 'C:\\Anaconda\\tcl\\tcl8.5\\tzdata\\America\\Rosario', 'DATA'), ('_MEI\\tcl\\tzdata\\America\\Santarem', 'C:\\Anaconda\\tcl\\tcl8.5\\tzdata\\America\\Santarem', 'DATA'), ('_MEI\\tcl\\tzdata\\America\\Santa_Isabel', 'C:\\Anaconda\\tcl\\tcl8.5\\tzdata\\America\\Santa_Isabel', 'DATA'), ('_MEI\\tcl\\tzdata\\America\\Santiago', 'C:\\Anaconda\\tcl\\tcl8.5\\tzdata\\America\\Santiago', 'DATA'), ('_MEI\\tcl\\tzdata\\America\\Santo_Domingo', 'C:\\Anaconda\\tcl\\tcl8.5\\tzdata\\America\\Santo_Domingo', 'DATA'), ('_MEI\\tcl\\tzdata\\America\\Sao_Paulo', 'C:\\Anaconda\\tcl\\tcl8.5\\tzdata\\America\\Sao_Paulo', 'DATA'), ('_MEI\\tcl\\tzdata\\America\\Scoresbysund', 'C:\\Anaconda\\tcl\\tcl8.5\\tzdata\\America\\Scoresbysund', 'DATA'), ('_MEI\\tcl\\tzdata\\America\\Shiprock', 'C:\\Anaconda\\tcl\\tcl8.5\\tzdata\\America\\Shiprock', 'DATA'), ('_MEI\\tcl\\tzdata\\America\\Sitka', 'C:\\Anaconda\\tcl\\tcl8.5\\tzdata\\America\\Sitka', 'DATA'), ('_MEI\\tcl\\tzdata\\America\\St_Barthelemy', 'C:\\Anaconda\\tcl\\tcl8.5\\tzdata\\America\\St_Barthelemy', 'DATA'), ('_MEI\\tcl\\tzdata\\America\\St_Johns', 'C:\\Anaconda\\tcl\\tcl8.5\\tzdata\\America\\St_Johns', 'DATA'), ('_MEI\\tcl\\tzdata\\America\\St_Kitts', 'C:\\Anaconda\\tcl\\tcl8.5\\tzdata\\America\\St_Kitts', 'DATA'), ('_MEI\\tcl\\tzdata\\America\\St_Lucia', 'C:\\Anaconda\\tcl\\tcl8.5\\tzdata\\America\\St_Lucia', 'DATA'), ('_MEI\\tcl\\tzdata\\America\\St_Thomas', 'C:\\Anaconda\\tcl\\tcl8.5\\tzdata\\America\\St_Thomas', 'DATA'), ('_MEI\\tcl\\tzdata\\America\\St_Vincent', 'C:\\Anaconda\\tcl\\tcl8.5\\tzdata\\America\\St_Vincent', 'DATA'), ('_MEI\\tcl\\tzdata\\America\\Swift_Current', 'C:\\Anaconda\\tcl\\tcl8.5\\tzdata\\America\\Swift_Current', 'DATA'), ('_MEI\\tcl\\tzdata\\America\\Tegucigalpa', 'C:\\Anaconda\\tcl\\tcl8.5\\tzdata\\America\\Tegucigalpa', 'DATA'), ('_MEI\\tcl\\tzdata\\America\\Thule', 'C:\\Anaconda\\tcl\\tcl8.5\\tzdata\\America\\Thule', 'DATA'), ('_MEI\\tcl\\tzdata\\America\\Thunder_Bay', 'C:\\Anaconda\\tcl\\tcl8.5\\tzdata\\America\\Thunder_Bay', 'DATA'), ('_MEI\\tcl\\tzdata\\America\\Tijuana', 'C:\\Anaconda\\tcl\\tcl8.5\\tzdata\\America\\Tijuana', 'DATA'), ('_MEI\\tcl\\tzdata\\America\\Toronto', 'C:\\Anaconda\\tcl\\tcl8.5\\tzdata\\America\\Toronto', 'DATA'), ('_MEI\\tcl\\tzdata\\America\\Tortola', 'C:\\Anaconda\\tcl\\tcl8.5\\tzdata\\America\\Tortola', 'DATA'), ('_MEI\\tcl\\tzdata\\America\\Vancouver', 'C:\\Anaconda\\tcl\\tcl8.5\\tzdata\\America\\Vancouver', 'DATA'), ('_MEI\\tcl\\tzdata\\America\\Virgin', 'C:\\Anaconda\\tcl\\tcl8.5\\tzdata\\America\\Virgin', 'DATA'), ('_MEI\\tcl\\tzdata\\America\\Whitehorse', 'C:\\Anaconda\\tcl\\tcl8.5\\tzdata\\America\\Whitehorse', 'DATA'), ('_MEI\\tcl\\tzdata\\America\\Winnipeg', 'C:\\Anaconda\\tcl\\tcl8.5\\tzdata\\America\\Winnipeg', 'DATA'), ('_MEI\\tcl\\tzdata\\America\\Yakutat', 'C:\\Anaconda\\tcl\\tcl8.5\\tzdata\\America\\Yakutat', 'DATA'), ('_MEI\\tcl\\tzdata\\America\\Yellowknife', 'C:\\Anaconda\\tcl\\tcl8.5\\tzdata\\America\\Yellowknife', 'DATA'), ('_MEI\\tcl\\tzdata\\America\\North_Dakota\\Beulah', 'C:\\Anaconda\\tcl\\tcl8.5\\tzdata\\America\\North_Dakota\\Beulah', 'DATA'), ('_MEI\\tcl\\tzdata\\America\\North_Dakota\\Center', 'C:\\Anaconda\\tcl\\tcl8.5\\tzdata\\America\\North_Dakota\\Center', 'DATA'), ('_MEI\\tcl\\tzdata\\America\\North_Dakota\\New_Salem', 'C:\\Anaconda\\tcl\\tcl8.5\\tzdata\\America\\North_Dakota\\New_Salem', 'DATA'), ('_MEI\\tcl\\tzdata\\America\\Kentucky\\Louisville', 'C:\\Anaconda\\tcl\\tcl8.5\\tzdata\\America\\Kentucky\\Louisville', 'DATA'), ('_MEI\\tcl\\tzdata\\America\\Kentucky\\Monticello', 'C:\\Anaconda\\tcl\\tcl8.5\\tzdata\\America\\Kentucky\\Monticello', 'DATA'), ('_MEI\\tcl\\tzdata\\America\\Indiana\\Indianapolis', 'C:\\Anaconda\\tcl\\tcl8.5\\tzdata\\America\\Indiana\\Indianapolis', 'DATA'), ('_MEI\\tcl\\tzdata\\America\\Indiana\\Knox', 'C:\\Anaconda\\tcl\\tcl8.5\\tzdata\\America\\Indiana\\Knox', 'DATA'), ('_MEI\\tcl\\tzdata\\America\\Indiana\\Marengo', 'C:\\Anaconda\\tcl\\tcl8.5\\tzdata\\America\\Indiana\\Marengo', 'DATA'), ('_MEI\\tcl\\tzdata\\America\\Indiana\\Petersburg', 'C:\\Anaconda\\tcl\\tcl8.5\\tzdata\\America\\Indiana\\Petersburg', 'DATA'), ('_MEI\\tcl\\tzdata\\America\\Indiana\\Tell_City', 'C:\\Anaconda\\tcl\\tcl8.5\\tzdata\\America\\Indiana\\Tell_City', 'DATA'), ('_MEI\\tcl\\tzdata\\America\\Indiana\\Vevay', 'C:\\Anaconda\\tcl\\tcl8.5\\tzdata\\America\\Indiana\\Vevay', 'DATA'), ('_MEI\\tcl\\tzdata\\America\\Indiana\\Vincennes', 'C:\\Anaconda\\tcl\\tcl8.5\\tzdata\\America\\Indiana\\Vincennes', 'DATA'), ('_MEI\\tcl\\tzdata\\America\\Indiana\\Winamac', 'C:\\Anaconda\\tcl\\tcl8.5\\tzdata\\America\\Indiana\\Winamac', 'DATA'), ('_MEI\\tcl\\tzdata\\America\\Argentina\\Buenos_Aires', 'C:\\Anaconda\\tcl\\tcl8.5\\tzdata\\America\\Argentina\\Buenos_Aires', 'DATA'), ('_MEI\\tcl\\tzdata\\America\\Argentina\\Catamarca', 'C:\\Anaconda\\tcl\\tcl8.5\\tzdata\\America\\Argentina\\Catamarca', 'DATA'), ('_MEI\\tcl\\tzdata\\America\\Argentina\\ComodRivadavia', 'C:\\Anaconda\\tcl\\tcl8.5\\tzdata\\America\\Argentina\\ComodRivadavia', 'DATA'), ('_MEI\\tcl\\tzdata\\America\\Argentina\\Cordoba', 'C:\\Anaconda\\tcl\\tcl8.5\\tzdata\\America\\Argentina\\Cordoba', 'DATA'), ('_MEI\\tcl\\tzdata\\America\\Argentina\\Jujuy', 'C:\\Anaconda\\tcl\\tcl8.5\\tzdata\\America\\Argentina\\Jujuy', 'DATA'), ('_MEI\\tcl\\tzdata\\America\\Argentina\\La_Rioja', 'C:\\Anaconda\\tcl\\tcl8.5\\tzdata\\America\\Argentina\\La_Rioja', 'DATA'), ('_MEI\\tcl\\tzdata\\America\\Argentina\\Mendoza', 'C:\\Anaconda\\tcl\\tcl8.5\\tzdata\\America\\Argentina\\Mendoza', 'DATA'), ('_MEI\\tcl\\tzdata\\America\\Argentina\\Rio_Gallegos', 'C:\\Anaconda\\tcl\\tcl8.5\\tzdata\\America\\Argentina\\Rio_Gallegos', 'DATA'), ('_MEI\\tcl\\tzdata\\America\\Argentina\\Salta', 'C:\\Anaconda\\tcl\\tcl8.5\\tzdata\\America\\Argentina\\Salta', 'DATA'), ('_MEI\\tcl\\tzdata\\America\\Argentina\\San_Juan', 'C:\\Anaconda\\tcl\\tcl8.5\\tzdata\\America\\Argentina\\San_Juan', 'DATA'), ('_MEI\\tcl\\tzdata\\America\\Argentina\\San_Luis', 'C:\\Anaconda\\tcl\\tcl8.5\\tzdata\\America\\Argentina\\San_Luis', 'DATA'), ('_MEI\\tcl\\tzdata\\America\\Argentina\\Tucuman', 'C:\\Anaconda\\tcl\\tcl8.5\\tzdata\\America\\Argentina\\Tucuman', 'DATA'), ('_MEI\\tcl\\tzdata\\America\\Argentina\\Ushuaia', 'C:\\Anaconda\\tcl\\tcl8.5\\tzdata\\America\\Argentina\\Ushuaia', 'DATA'), ('_MEI\\tcl\\tzdata\\Africa\\Abidjan', 'C:\\Anaconda\\tcl\\tcl8.5\\tzdata\\Africa\\Abidjan', 'DATA'), ('_MEI\\tcl\\tzdata\\Africa\\Accra', 'C:\\Anaconda\\tcl\\tcl8.5\\tzdata\\Africa\\Accra', 'DATA'), ('_MEI\\tcl\\tzdata\\Africa\\Addis_Ababa', 'C:\\Anaconda\\tcl\\tcl8.5\\tzdata\\Africa\\Addis_Ababa', 'DATA'), ('_MEI\\tcl\\tzdata\\Africa\\Algiers', 'C:\\Anaconda\\tcl\\tcl8.5\\tzdata\\Africa\\Algiers', 'DATA'), ('_MEI\\tcl\\tzdata\\Africa\\Asmara', 'C:\\Anaconda\\tcl\\tcl8.5\\tzdata\\Africa\\Asmara', 'DATA'), ('_MEI\\tcl\\tzdata\\Africa\\Asmera', 'C:\\Anaconda\\tcl\\tcl8.5\\tzdata\\Africa\\Asmera', 'DATA'), ('_MEI\\tcl\\tzdata\\Africa\\Bamako', 'C:\\Anaconda\\tcl\\tcl8.5\\tzdata\\Africa\\Bamako', 'DATA'), ('_MEI\\tcl\\tzdata\\Africa\\Bangui', 'C:\\Anaconda\\tcl\\tcl8.5\\tzdata\\Africa\\Bangui', 'DATA'), ('_MEI\\tcl\\tzdata\\Africa\\Banjul', 'C:\\Anaconda\\tcl\\tcl8.5\\tzdata\\Africa\\Banjul', 'DATA'), ('_MEI\\tcl\\tzdata\\Africa\\Bissau', 'C:\\Anaconda\\tcl\\tcl8.5\\tzdata\\Africa\\Bissau', 'DATA'), ('_MEI\\tcl\\tzdata\\Africa\\Blantyre', 'C:\\Anaconda\\tcl\\tcl8.5\\tzdata\\Africa\\Blantyre', 'DATA'), ('_MEI\\tcl\\tzdata\\Africa\\Brazzaville', 'C:\\Anaconda\\tcl\\tcl8.5\\tzdata\\Africa\\Brazzaville', 'DATA'), ('_MEI\\tcl\\tzdata\\Africa\\Bujumbura', 'C:\\Anaconda\\tcl\\tcl8.5\\tzdata\\Africa\\Bujumbura', 'DATA'), ('_MEI\\tcl\\tzdata\\Africa\\Cairo', 'C:\\Anaconda\\tcl\\tcl8.5\\tzdata\\Africa\\Cairo', 'DATA'), ('_MEI\\tcl\\tzdata\\Africa\\Casablanca', 'C:\\Anaconda\\tcl\\tcl8.5\\tzdata\\Africa\\Casablanca', 'DATA'), ('_MEI\\tcl\\tzdata\\Africa\\Ceuta', 'C:\\Anaconda\\tcl\\tcl8.5\\tzdata\\Africa\\Ceuta', 'DATA'), ('_MEI\\tcl\\tzdata\\Africa\\Conakry', 'C:\\Anaconda\\tcl\\tcl8.5\\tzdata\\Africa\\Conakry', 'DATA'), ('_MEI\\tcl\\tzdata\\Africa\\Dakar', 'C:\\Anaconda\\tcl\\tcl8.5\\tzdata\\Africa\\Dakar', 'DATA'), ('_MEI\\tcl\\tzdata\\Africa\\Dar_es_Salaam', 'C:\\Anaconda\\tcl\\tcl8.5\\tzdata\\Africa\\Dar_es_Salaam', 'DATA'), ('_MEI\\tcl\\tzdata\\Africa\\Djibouti', 'C:\\Anaconda\\tcl\\tcl8.5\\tzdata\\Africa\\Djibouti', 'DATA'), ('_MEI\\tcl\\tzdata\\Africa\\Douala', 'C:\\Anaconda\\tcl\\tcl8.5\\tzdata\\Africa\\Douala', 'DATA'), ('_MEI\\tcl\\tzdata\\Africa\\El_Aaiun', 'C:\\Anaconda\\tcl\\tcl8.5\\tzdata\\Africa\\El_Aaiun', 'DATA'), ('_MEI\\tcl\\tzdata\\Africa\\Freetown', 'C:\\Anaconda\\tcl\\tcl8.5\\tzdata\\Africa\\Freetown', 'DATA'), ('_MEI\\tcl\\tzdata\\Africa\\Gaborone', 'C:\\Anaconda\\tcl\\tcl8.5\\tzdata\\Africa\\Gaborone', 'DATA'), ('_MEI\\tcl\\tzdata\\Africa\\Harare', 'C:\\Anaconda\\tcl\\tcl8.5\\tzdata\\Africa\\Harare', 'DATA'), ('_MEI\\tcl\\tzdata\\Africa\\Johannesburg', 'C:\\Anaconda\\tcl\\tcl8.5\\tzdata\\Africa\\Johannesburg', 'DATA'), ('_MEI\\tcl\\tzdata\\Africa\\Juba', 'C:\\Anaconda\\tcl\\tcl8.5\\tzdata\\Africa\\Juba', 'DATA'), ('_MEI\\tcl\\tzdata\\Africa\\Kampala', 'C:\\Anaconda\\tcl\\tcl8.5\\tzdata\\Africa\\Kampala', 'DATA'), ('_MEI\\tcl\\tzdata\\Africa\\Khartoum', 'C:\\Anaconda\\tcl\\tcl8.5\\tzdata\\Africa\\Khartoum', 'DATA'), ('_MEI\\tcl\\tzdata\\Africa\\Kigali', 'C:\\Anaconda\\tcl\\tcl8.5\\tzdata\\Africa\\Kigali', 'DATA'), ('_MEI\\tcl\\tzdata\\Africa\\Kinshasa', 'C:\\Anaconda\\tcl\\tcl8.5\\tzdata\\Africa\\Kinshasa', 'DATA'), ('_MEI\\tcl\\tzdata\\Africa\\Lagos', 'C:\\Anaconda\\tcl\\tcl8.5\\tzdata\\Africa\\Lagos', 'DATA'), ('_MEI\\tcl\\tzdata\\Africa\\Libreville', 'C:\\Anaconda\\tcl\\tcl8.5\\tzdata\\Africa\\Libreville', 'DATA'), ('_MEI\\tcl\\tzdata\\Africa\\Lome', 'C:\\Anaconda\\tcl\\tcl8.5\\tzdata\\Africa\\Lome', 'DATA'), ('_MEI\\tcl\\tzdata\\Africa\\Luanda', 'C:\\Anaconda\\tcl\\tcl8.5\\tzdata\\Africa\\Luanda', 'DATA'), ('_MEI\\tcl\\tzdata\\Africa\\Lubumbashi', 'C:\\Anaconda\\tcl\\tcl8.5\\tzdata\\Africa\\Lubumbashi', 'DATA'), ('_MEI\\tcl\\tzdata\\Africa\\Lusaka', 'C:\\Anaconda\\tcl\\tcl8.5\\tzdata\\Africa\\Lusaka', 'DATA'), ('_MEI\\tcl\\tzdata\\Africa\\Malabo', 'C:\\Anaconda\\tcl\\tcl8.5\\tzdata\\Africa\\Malabo', 'DATA'), ('_MEI\\tcl\\tzdata\\Africa\\Maputo', 'C:\\Anaconda\\tcl\\tcl8.5\\tzdata\\Africa\\Maputo', 'DATA'), ('_MEI\\tcl\\tzdata\\Africa\\Maseru', 'C:\\Anaconda\\tcl\\tcl8.5\\tzdata\\Africa\\Maseru', 'DATA'), ('_MEI\\tcl\\tzdata\\Africa\\Mbabane', 'C:\\Anaconda\\tcl\\tcl8.5\\tzdata\\Africa\\Mbabane', 'DATA'), ('_MEI\\tcl\\tzdata\\Africa\\Mogadishu', 'C:\\Anaconda\\tcl\\tcl8.5\\tzdata\\Africa\\Mogadishu', 'DATA'), ('_MEI\\tcl\\tzdata\\Africa\\Monrovia', 'C:\\Anaconda\\tcl\\tcl8.5\\tzdata\\Africa\\Monrovia', 'DATA'), ('_MEI\\tcl\\tzdata\\Africa\\Nairobi', 'C:\\Anaconda\\tcl\\tcl8.5\\tzdata\\Africa\\Nairobi', 'DATA'), ('_MEI\\tcl\\tzdata\\Africa\\Ndjamena', 'C:\\Anaconda\\tcl\\tcl8.5\\tzdata\\Africa\\Ndjamena', 'DATA'), ('_MEI\\tcl\\tzdata\\Africa\\Niamey', 'C:\\Anaconda\\tcl\\tcl8.5\\tzdata\\Africa\\Niamey', 'DATA'), ('_MEI\\tcl\\tzdata\\Africa\\Nouakchott', 'C:\\Anaconda\\tcl\\tcl8.5\\tzdata\\Africa\\Nouakchott', 'DATA'), ('_MEI\\tcl\\tzdata\\Africa\\Ouagadougou', 'C:\\Anaconda\\tcl\\tcl8.5\\tzdata\\Africa\\Ouagadougou', 'DATA'), ('_MEI\\tcl\\tzdata\\Africa\\Porto-Novo', 'C:\\Anaconda\\tcl\\tcl8.5\\tzdata\\Africa\\Porto-Novo', 'DATA'), ('_MEI\\tcl\\tzdata\\Africa\\Sao_Tome', 'C:\\Anaconda\\tcl\\tcl8.5\\tzdata\\Africa\\Sao_Tome', 'DATA'), ('_MEI\\tcl\\tzdata\\Africa\\Timbuktu', 'C:\\Anaconda\\tcl\\tcl8.5\\tzdata\\Africa\\Timbuktu', 'DATA'), ('_MEI\\tcl\\tzdata\\Africa\\Tripoli', 'C:\\Anaconda\\tcl\\tcl8.5\\tzdata\\Africa\\Tripoli', 'DATA'), ('_MEI\\tcl\\tzdata\\Africa\\Tunis', 'C:\\Anaconda\\tcl\\tcl8.5\\tzdata\\Africa\\Tunis', 'DATA'), ('_MEI\\tcl\\tzdata\\Africa\\Windhoek', 'C:\\Anaconda\\tcl\\tcl8.5\\tzdata\\Africa\\Windhoek', 'DATA'), ('_MEI\\tcl\\opt0.4\\optparse.tcl', 'C:\\Anaconda\\tcl\\tcl8.5\\opt0.4\\optparse.tcl', 'DATA'), ('_MEI\\tcl\\opt0.4\\pkgIndex.tcl', 'C:\\Anaconda\\tcl\\tcl8.5\\opt0.4\\pkgIndex.tcl', 'DATA'), ('_MEI\\tcl\\msgs\\af.msg', 'C:\\Anaconda\\tcl\\tcl8.5\\msgs\\af.msg', 'DATA'), ('_MEI\\tcl\\msgs\\af_za.msg', 'C:\\Anaconda\\tcl\\tcl8.5\\msgs\\af_za.msg', 'DATA'), ('_MEI\\tcl\\msgs\\ar.msg', 'C:\\Anaconda\\tcl\\tcl8.5\\msgs\\ar.msg', 'DATA'), ('_MEI\\tcl\\msgs\\ar_in.msg', 'C:\\Anaconda\\tcl\\tcl8.5\\msgs\\ar_in.msg', 'DATA'), ('_MEI\\tcl\\msgs\\ar_jo.msg', 'C:\\Anaconda\\tcl\\tcl8.5\\msgs\\ar_jo.msg', 'DATA'), ('_MEI\\tcl\\msgs\\ar_lb.msg', 'C:\\Anaconda\\tcl\\tcl8.5\\msgs\\ar_lb.msg', 'DATA'), ('_MEI\\tcl\\msgs\\ar_sy.msg', 'C:\\Anaconda\\tcl\\tcl8.5\\msgs\\ar_sy.msg', 'DATA'), ('_MEI\\tcl\\msgs\\be.msg', 'C:\\Anaconda\\tcl\\tcl8.5\\msgs\\be.msg', 'DATA'), ('_MEI\\tcl\\msgs\\bg.msg', 'C:\\Anaconda\\tcl\\tcl8.5\\msgs\\bg.msg', 'DATA'), ('_MEI\\tcl\\msgs\\bn.msg', 'C:\\Anaconda\\tcl\\tcl8.5\\msgs\\bn.msg', 'DATA'), ('_MEI\\tcl\\msgs\\bn_in.msg', 'C:\\Anaconda\\tcl\\tcl8.5\\msgs\\bn_in.msg', 'DATA'), ('_MEI\\tcl\\msgs\\ca.msg', 'C:\\Anaconda\\tcl\\tcl8.5\\msgs\\ca.msg', 'DATA'), ('_MEI\\tcl\\msgs\\cs.msg', 'C:\\Anaconda\\tcl\\tcl8.5\\msgs\\cs.msg', 'DATA'), ('_MEI\\tcl\\msgs\\da.msg', 'C:\\Anaconda\\tcl\\tcl8.5\\msgs\\da.msg', 'DATA'), ('_MEI\\tcl\\msgs\\de.msg', 'C:\\Anaconda\\tcl\\tcl8.5\\msgs\\de.msg', 'DATA'), ('_MEI\\tcl\\msgs\\de_at.msg', 'C:\\Anaconda\\tcl\\tcl8.5\\msgs\\de_at.msg', 'DATA'), ('_MEI\\tcl\\msgs\\de_be.msg', 'C:\\Anaconda\\tcl\\tcl8.5\\msgs\\de_be.msg', 'DATA'), ('_MEI\\tcl\\msgs\\el.msg', 'C:\\Anaconda\\tcl\\tcl8.5\\msgs\\el.msg', 'DATA'), ('_MEI\\tcl\\msgs\\en_au.msg', 'C:\\Anaconda\\tcl\\tcl8.5\\msgs\\en_au.msg', 'DATA'), ('_MEI\\tcl\\msgs\\en_be.msg', 'C:\\Anaconda\\tcl\\tcl8.5\\msgs\\en_be.msg', 'DATA'), ('_MEI\\tcl\\msgs\\en_bw.msg', 'C:\\Anaconda\\tcl\\tcl8.5\\msgs\\en_bw.msg', 'DATA'), ('_MEI\\tcl\\msgs\\en_ca.msg', 'C:\\Anaconda\\tcl\\tcl8.5\\msgs\\en_ca.msg', 'DATA'), ('_MEI\\tcl\\msgs\\en_gb.msg', 'C:\\Anaconda\\tcl\\tcl8.5\\msgs\\en_gb.msg', 'DATA'), ('_MEI\\tcl\\msgs\\en_hk.msg', 'C:\\Anaconda\\tcl\\tcl8.5\\msgs\\en_hk.msg', 'DATA'), ('_MEI\\tcl\\msgs\\en_ie.msg', 'C:\\Anaconda\\tcl\\tcl8.5\\msgs\\en_ie.msg', 'DATA'), ('_MEI\\tcl\\msgs\\en_in.msg', 'C:\\Anaconda\\tcl\\tcl8.5\\msgs\\en_in.msg', 'DATA'), ('_MEI\\tcl\\msgs\\en_nz.msg', 'C:\\Anaconda\\tcl\\tcl8.5\\msgs\\en_nz.msg', 'DATA'), ('_MEI\\tcl\\msgs\\en_ph.msg', 'C:\\Anaconda\\tcl\\tcl8.5\\msgs\\en_ph.msg', 'DATA'), ('_MEI\\tcl\\msgs\\en_sg.msg', 'C:\\Anaconda\\tcl\\tcl8.5\\msgs\\en_sg.msg', 'DATA'), ('_MEI\\tcl\\msgs\\en_za.msg', 'C:\\Anaconda\\tcl\\tcl8.5\\msgs\\en_za.msg', 'DATA'), ('_MEI\\tcl\\msgs\\en_zw.msg', 'C:\\Anaconda\\tcl\\tcl8.5\\msgs\\en_zw.msg', 'DATA'), ('_MEI\\tcl\\msgs\\eo.msg', 'C:\\Anaconda\\tcl\\tcl8.5\\msgs\\eo.msg', 'DATA'), ('_MEI\\tcl\\msgs\\es.msg', 'C:\\Anaconda\\tcl\\tcl8.5\\msgs\\es.msg', 'DATA'), ('_MEI\\tcl\\msgs\\es_ar.msg', 'C:\\Anaconda\\tcl\\tcl8.5\\msgs\\es_ar.msg', 'DATA'), ('_MEI\\tcl\\msgs\\es_bo.msg', 'C:\\Anaconda\\tcl\\tcl8.5\\msgs\\es_bo.msg', 'DATA'), ('_MEI\\tcl\\msgs\\es_cl.msg', 'C:\\Anaconda\\tcl\\tcl8.5\\msgs\\es_cl.msg', 'DATA'), ('_MEI\\tcl\\msgs\\es_co.msg', 'C:\\Anaconda\\tcl\\tcl8.5\\msgs\\es_co.msg', 'DATA'), ('_MEI\\tcl\\msgs\\es_cr.msg', 'C:\\Anaconda\\tcl\\tcl8.5\\msgs\\es_cr.msg', 'DATA'), ('_MEI\\tcl\\msgs\\es_do.msg', 'C:\\Anaconda\\tcl\\tcl8.5\\msgs\\es_do.msg', 'DATA'), ('_MEI\\tcl\\msgs\\es_ec.msg', 'C:\\Anaconda\\tcl\\tcl8.5\\msgs\\es_ec.msg', 'DATA'), ('_MEI\\tcl\\msgs\\es_gt.msg', 'C:\\Anaconda\\tcl\\tcl8.5\\msgs\\es_gt.msg', 'DATA'), ('_MEI\\tcl\\msgs\\es_hn.msg', 'C:\\Anaconda\\tcl\\tcl8.5\\msgs\\es_hn.msg', 'DATA'), ('_MEI\\tcl\\msgs\\es_mx.msg', 'C:\\Anaconda\\tcl\\tcl8.5\\msgs\\es_mx.msg', 'DATA'), ('_MEI\\tcl\\msgs\\es_ni.msg', 'C:\\Anaconda\\tcl\\tcl8.5\\msgs\\es_ni.msg', 'DATA'), ('_MEI\\tcl\\msgs\\es_pa.msg', 'C:\\Anaconda\\tcl\\tcl8.5\\msgs\\es_pa.msg', 'DATA'), ('_MEI\\tcl\\msgs\\es_pe.msg', 'C:\\Anaconda\\tcl\\tcl8.5\\msgs\\es_pe.msg', 'DATA'), ('_MEI\\tcl\\msgs\\es_pr.msg', 'C:\\Anaconda\\tcl\\tcl8.5\\msgs\\es_pr.msg', 'DATA'), ('_MEI\\tcl\\msgs\\es_py.msg', 'C:\\Anaconda\\tcl\\tcl8.5\\msgs\\es_py.msg', 'DATA'), ('_MEI\\tcl\\msgs\\es_sv.msg', 'C:\\Anaconda\\tcl\\tcl8.5\\msgs\\es_sv.msg', 'DATA'), ('_MEI\\tcl\\msgs\\es_uy.msg', 'C:\\Anaconda\\tcl\\tcl8.5\\msgs\\es_uy.msg', 'DATA'), ('_MEI\\tcl\\msgs\\es_ve.msg', 'C:\\Anaconda\\tcl\\tcl8.5\\msgs\\es_ve.msg', 'DATA'), ('_MEI\\tcl\\msgs\\et.msg', 'C:\\Anaconda\\tcl\\tcl8.5\\msgs\\et.msg', 'DATA'), ('_MEI\\tcl\\msgs\\eu.msg', 'C:\\Anaconda\\tcl\\tcl8.5\\msgs\\eu.msg', 'DATA'), ('_MEI\\tcl\\msgs\\eu_es.msg', 'C:\\Anaconda\\tcl\\tcl8.5\\msgs\\eu_es.msg', 'DATA'), ('_MEI\\tcl\\msgs\\fa.msg', 'C:\\Anaconda\\tcl\\tcl8.5\\msgs\\fa.msg', 'DATA'), ('_MEI\\tcl\\msgs\\fa_in.msg', 'C:\\Anaconda\\tcl\\tcl8.5\\msgs\\fa_in.msg', 'DATA'), ('_MEI\\tcl\\msgs\\fa_ir.msg', 'C:\\Anaconda\\tcl\\tcl8.5\\msgs\\fa_ir.msg', 'DATA'), ('_MEI\\tcl\\msgs\\fi.msg', 'C:\\Anaconda\\tcl\\tcl8.5\\msgs\\fi.msg', 'DATA'), ('_MEI\\tcl\\msgs\\fo.msg', 'C:\\Anaconda\\tcl\\tcl8.5\\msgs\\fo.msg', 'DATA'), ('_MEI\\tcl\\msgs\\fo_fo.msg', 'C:\\Anaconda\\tcl\\tcl8.5\\msgs\\fo_fo.msg', 'DATA'), ('_MEI\\tcl\\msgs\\fr.msg', 'C:\\Anaconda\\tcl\\tcl8.5\\msgs\\fr.msg', 'DATA'), ('_MEI\\tcl\\msgs\\fr_be.msg', 'C:\\Anaconda\\tcl\\tcl8.5\\msgs\\fr_be.msg', 'DATA'), ('_MEI\\tcl\\msgs\\fr_ca.msg', 'C:\\Anaconda\\tcl\\tcl8.5\\msgs\\fr_ca.msg', 'DATA'), ('_MEI\\tcl\\msgs\\fr_ch.msg', 'C:\\Anaconda\\tcl\\tcl8.5\\msgs\\fr_ch.msg', 'DATA'), ('_MEI\\tcl\\msgs\\ga.msg', 'C:\\Anaconda\\tcl\\tcl8.5\\msgs\\ga.msg', 'DATA'), ('_MEI\\tcl\\msgs\\ga_ie.msg', 'C:\\Anaconda\\tcl\\tcl8.5\\msgs\\ga_ie.msg', 'DATA'), ('_MEI\\tcl\\msgs\\gl.msg', 'C:\\Anaconda\\tcl\\tcl8.5\\msgs\\gl.msg', 'DATA'), ('_MEI\\tcl\\msgs\\gl_es.msg', 'C:\\Anaconda\\tcl\\tcl8.5\\msgs\\gl_es.msg', 'DATA'), ('_MEI\\tcl\\msgs\\gv.msg', 'C:\\Anaconda\\tcl\\tcl8.5\\msgs\\gv.msg', 'DATA'), ('_MEI\\tcl\\msgs\\gv_gb.msg', 'C:\\Anaconda\\tcl\\tcl8.5\\msgs\\gv_gb.msg', 'DATA'), ('_MEI\\tcl\\msgs\\he.msg', 'C:\\Anaconda\\tcl\\tcl8.5\\msgs\\he.msg', 'DATA'), ('_MEI\\tcl\\msgs\\hi.msg', 'C:\\Anaconda\\tcl\\tcl8.5\\msgs\\hi.msg', 'DATA'), ('_MEI\\tcl\\msgs\\hi_in.msg', 'C:\\Anaconda\\tcl\\tcl8.5\\msgs\\hi_in.msg', 'DATA'), ('_MEI\\tcl\\msgs\\hr.msg', 'C:\\Anaconda\\tcl\\tcl8.5\\msgs\\hr.msg', 'DATA'), ('_MEI\\tcl\\msgs\\hu.msg', 'C:\\Anaconda\\tcl\\tcl8.5\\msgs\\hu.msg', 'DATA'), ('_MEI\\tcl\\msgs\\id.msg', 'C:\\Anaconda\\tcl\\tcl8.5\\msgs\\id.msg', 'DATA'), ('_MEI\\tcl\\msgs\\id_id.msg', 'C:\\Anaconda\\tcl\\tcl8.5\\msgs\\id_id.msg', 'DATA'), ('_MEI\\tcl\\msgs\\is.msg', 'C:\\Anaconda\\tcl\\tcl8.5\\msgs\\is.msg', 'DATA'), ('_MEI\\tcl\\msgs\\it.msg', 'C:\\Anaconda\\tcl\\tcl8.5\\msgs\\it.msg', 'DATA'), ('_MEI\\tcl\\msgs\\it_ch.msg', 'C:\\Anaconda\\tcl\\tcl8.5\\msgs\\it_ch.msg', 'DATA'), ('_MEI\\tcl\\msgs\\ja.msg', 'C:\\Anaconda\\tcl\\tcl8.5\\msgs\\ja.msg', 'DATA'), ('_MEI\\tcl\\msgs\\kl.msg', 'C:\\Anaconda\\tcl\\tcl8.5\\msgs\\kl.msg', 'DATA'), ('_MEI\\tcl\\msgs\\kl_gl.msg', 'C:\\Anaconda\\tcl\\tcl8.5\\msgs\\kl_gl.msg', 'DATA'), ('_MEI\\tcl\\msgs\\ko.msg', 'C:\\Anaconda\\tcl\\tcl8.5\\msgs\\ko.msg', 'DATA'), ('_MEI\\tcl\\msgs\\kok.msg', 'C:\\Anaconda\\tcl\\tcl8.5\\msgs\\kok.msg', 'DATA'), ('_MEI\\tcl\\msgs\\kok_in.msg', 'C:\\Anaconda\\tcl\\tcl8.5\\msgs\\kok_in.msg', 'DATA'), ('_MEI\\tcl\\msgs\\ko_kr.msg', 'C:\\Anaconda\\tcl\\tcl8.5\\msgs\\ko_kr.msg', 'DATA'), ('_MEI\\tcl\\msgs\\kw.msg', 'C:\\Anaconda\\tcl\\tcl8.5\\msgs\\kw.msg', 'DATA'), ('_MEI\\tcl\\msgs\\kw_gb.msg', 'C:\\Anaconda\\tcl\\tcl8.5\\msgs\\kw_gb.msg', 'DATA'), ('_MEI\\tcl\\msgs\\lt.msg', 'C:\\Anaconda\\tcl\\tcl8.5\\msgs\\lt.msg', 'DATA'), ('_MEI\\tcl\\msgs\\lv.msg', 'C:\\Anaconda\\tcl\\tcl8.5\\msgs\\lv.msg', 'DATA'), ('_MEI\\tcl\\msgs\\mk.msg', 'C:\\Anaconda\\tcl\\tcl8.5\\msgs\\mk.msg', 'DATA'), ('_MEI\\tcl\\msgs\\mr.msg', 'C:\\Anaconda\\tcl\\tcl8.5\\msgs\\mr.msg', 'DATA'), ('_MEI\\tcl\\msgs\\mr_in.msg', 'C:\\Anaconda\\tcl\\tcl8.5\\msgs\\mr_in.msg', 'DATA'), ('_MEI\\tcl\\msgs\\ms.msg', 'C:\\Anaconda\\tcl\\tcl8.5\\msgs\\ms.msg', 'DATA'), ('_MEI\\tcl\\msgs\\ms_my.msg', 'C:\\Anaconda\\tcl\\tcl8.5\\msgs\\ms_my.msg', 'DATA'), ('_MEI\\tcl\\msgs\\mt.msg', 'C:\\Anaconda\\tcl\\tcl8.5\\msgs\\mt.msg', 'DATA'), ('_MEI\\tcl\\msgs\\nb.msg', 'C:\\Anaconda\\tcl\\tcl8.5\\msgs\\nb.msg', 'DATA'), ('_MEI\\tcl\\msgs\\nl.msg', 'C:\\Anaconda\\tcl\\tcl8.5\\msgs\\nl.msg', 'DATA'), ('_MEI\\tcl\\msgs\\nl_be.msg', 'C:\\Anaconda\\tcl\\tcl8.5\\msgs\\nl_be.msg', 'DATA'), ('_MEI\\tcl\\msgs\\nn.msg', 'C:\\Anaconda\\tcl\\tcl8.5\\msgs\\nn.msg', 'DATA'), ('_MEI\\tcl\\msgs\\pl.msg', 'C:\\Anaconda\\tcl\\tcl8.5\\msgs\\pl.msg', 'DATA'), ('_MEI\\tcl\\msgs\\pt.msg', 'C:\\Anaconda\\tcl\\tcl8.5\\msgs\\pt.msg', 'DATA'), ('_MEI\\tcl\\msgs\\pt_br.msg', 'C:\\Anaconda\\tcl\\tcl8.5\\msgs\\pt_br.msg', 'DATA'), ('_MEI\\tcl\\msgs\\ro.msg', 'C:\\Anaconda\\tcl\\tcl8.5\\msgs\\ro.msg', 'DATA'), ('_MEI\\tcl\\msgs\\ru.msg', 'C:\\Anaconda\\tcl\\tcl8.5\\msgs\\ru.msg', 'DATA'), ('_MEI\\tcl\\msgs\\ru_ua.msg', 'C:\\Anaconda\\tcl\\tcl8.5\\msgs\\ru_ua.msg', 'DATA'), ('_MEI\\tcl\\msgs\\sh.msg', 'C:\\Anaconda\\tcl\\tcl8.5\\msgs\\sh.msg', 'DATA'), ('_MEI\\tcl\\msgs\\sk.msg', 'C:\\Anaconda\\tcl\\tcl8.5\\msgs\\sk.msg', 'DATA'), ('_MEI\\tcl\\msgs\\sl.msg', 'C:\\Anaconda\\tcl\\tcl8.5\\msgs\\sl.msg', 'DATA'), ('_MEI\\tcl\\msgs\\sq.msg', 'C:\\Anaconda\\tcl\\tcl8.5\\msgs\\sq.msg', 'DATA'), ('_MEI\\tcl\\msgs\\sr.msg', 'C:\\Anaconda\\tcl\\tcl8.5\\msgs\\sr.msg', 'DATA'), ('_MEI\\tcl\\msgs\\sv.msg', 'C:\\Anaconda\\tcl\\tcl8.5\\msgs\\sv.msg', 'DATA'), ('_MEI\\tcl\\msgs\\sw.msg', 'C:\\Anaconda\\tcl\\tcl8.5\\msgs\\sw.msg', 'DATA'), ('_MEI\\tcl\\msgs\\ta.msg', 'C:\\Anaconda\\tcl\\tcl8.5\\msgs\\ta.msg', 'DATA'), ('_MEI\\tcl\\msgs\\ta_in.msg', 'C:\\Anaconda\\tcl\\tcl8.5\\msgs\\ta_in.msg', 'DATA'), ('_MEI\\tcl\\msgs\\te.msg', 'C:\\Anaconda\\tcl\\tcl8.5\\msgs\\te.msg', 'DATA'), ('_MEI\\tcl\\msgs\\te_in.msg', 'C:\\Anaconda\\tcl\\tcl8.5\\msgs\\te_in.msg', 'DATA'), ('_MEI\\tcl\\msgs\\th.msg', 'C:\\Anaconda\\tcl\\tcl8.5\\msgs\\th.msg', 'DATA'), ('_MEI\\tcl\\msgs\\tr.msg', 'C:\\Anaconda\\tcl\\tcl8.5\\msgs\\tr.msg', 'DATA'), ('_MEI\\tcl\\msgs\\uk.msg', 'C:\\Anaconda\\tcl\\tcl8.5\\msgs\\uk.msg', 'DATA'), ('_MEI\\tcl\\msgs\\vi.msg', 'C:\\Anaconda\\tcl\\tcl8.5\\msgs\\vi.msg', 'DATA'), ('_MEI\\tcl\\msgs\\zh.msg', 'C:\\Anaconda\\tcl\\tcl8.5\\msgs\\zh.msg', 'DATA'), ('_MEI\\tcl\\msgs\\zh_cn.msg', 'C:\\Anaconda\\tcl\\tcl8.5\\msgs\\zh_cn.msg', 'DATA'), ('_MEI\\tcl\\msgs\\zh_hk.msg', 'C:\\Anaconda\\tcl\\tcl8.5\\msgs\\zh_hk.msg', 'DATA'), ('_MEI\\tcl\\msgs\\zh_sg.msg', 'C:\\Anaconda\\tcl\\tcl8.5\\msgs\\zh_sg.msg', 'DATA'), ('_MEI\\tcl\\msgs\\zh_tw.msg', 'C:\\Anaconda\\tcl\\tcl8.5\\msgs\\zh_tw.msg', 'DATA'), ('_MEI\\tcl\\http1.0\\http.tcl', 'C:\\Anaconda\\tcl\\tcl8.5\\http1.0\\http.tcl', 'DATA'), ('_MEI\\tcl\\http1.0\\pkgIndex.tcl', 'C:\\Anaconda\\tcl\\tcl8.5\\http1.0\\pkgIndex.tcl', 'DATA'), ('_MEI\\tcl\\encoding\\ascii.enc', 'C:\\Anaconda\\tcl\\tcl8.5\\encoding\\ascii.enc', 'DATA'), ('_MEI\\tcl\\encoding\\big5.enc', 'C:\\Anaconda\\tcl\\tcl8.5\\encoding\\big5.enc', 'DATA'), ('_MEI\\tcl\\encoding\\cp1250.enc', 'C:\\Anaconda\\tcl\\tcl8.5\\encoding\\cp1250.enc', 'DATA'), ('_MEI\\tcl\\encoding\\cp1251.enc', 'C:\\Anaconda\\tcl\\tcl8.5\\encoding\\cp1251.enc', 'DATA'), ('_MEI\\tcl\\encoding\\cp1252.enc', 'C:\\Anaconda\\tcl\\tcl8.5\\encoding\\cp1252.enc', 'DATA'), ('_MEI\\tcl\\encoding\\cp1253.enc', 'C:\\Anaconda\\tcl\\tcl8.5\\encoding\\cp1253.enc', 'DATA'), ('_MEI\\tcl\\encoding\\cp1254.enc', 'C:\\Anaconda\\tcl\\tcl8.5\\encoding\\cp1254.enc', 'DATA'), ('_MEI\\tcl\\encoding\\cp1255.enc', 'C:\\Anaconda\\tcl\\tcl8.5\\encoding\\cp1255.enc', 'DATA'), ('_MEI\\tcl\\encoding\\cp1256.enc', 'C:\\Anaconda\\tcl\\tcl8.5\\encoding\\cp1256.enc', 'DATA'), ('_MEI\\tcl\\encoding\\cp1257.enc', 'C:\\Anaconda\\tcl\\tcl8.5\\encoding\\cp1257.enc', 'DATA'), ('_MEI\\tcl\\encoding\\cp1258.enc', 'C:\\Anaconda\\tcl\\tcl8.5\\encoding\\cp1258.enc', 'DATA'), ('_MEI\\tcl\\encoding\\cp437.enc', 'C:\\Anaconda\\tcl\\tcl8.5\\encoding\\cp437.enc', 'DATA'), ('_MEI\\tcl\\encoding\\cp737.enc', 'C:\\Anaconda\\tcl\\tcl8.5\\encoding\\cp737.enc', 'DATA'), ('_MEI\\tcl\\encoding\\cp775.enc', 'C:\\Anaconda\\tcl\\tcl8.5\\encoding\\cp775.enc', 'DATA'), ('_MEI\\tcl\\encoding\\cp850.enc', 'C:\\Anaconda\\tcl\\tcl8.5\\encoding\\cp850.enc', 'DATA'), ('_MEI\\tcl\\encoding\\cp852.enc', 'C:\\Anaconda\\tcl\\tcl8.5\\encoding\\cp852.enc', 'DATA'), ('_MEI\\tcl\\encoding\\cp855.enc', 'C:\\Anaconda\\tcl\\tcl8.5\\encoding\\cp855.enc', 'DATA'), ('_MEI\\tcl\\encoding\\cp857.enc', 'C:\\Anaconda\\tcl\\tcl8.5\\encoding\\cp857.enc', 'DATA'), ('_MEI\\tcl\\encoding\\cp860.enc', 'C:\\Anaconda\\tcl\\tcl8.5\\encoding\\cp860.enc', 'DATA'), ('_MEI\\tcl\\encoding\\cp861.enc', 'C:\\Anaconda\\tcl\\tcl8.5\\encoding\\cp861.enc', 'DATA'), ('_MEI\\tcl\\encoding\\cp862.enc', 'C:\\Anaconda\\tcl\\tcl8.5\\encoding\\cp862.enc', 'DATA'), ('_MEI\\tcl\\encoding\\cp863.enc', 'C:\\Anaconda\\tcl\\tcl8.5\\encoding\\cp863.enc', 'DATA'), ('_MEI\\tcl\\encoding\\cp864.enc', 'C:\\Anaconda\\tcl\\tcl8.5\\encoding\\cp864.enc', 'DATA'), ('_MEI\\tcl\\encoding\\cp865.enc', 'C:\\Anaconda\\tcl\\tcl8.5\\encoding\\cp865.enc', 'DATA'), ('_MEI\\tcl\\encoding\\cp866.enc', 'C:\\Anaconda\\tcl\\tcl8.5\\encoding\\cp866.enc', 'DATA'), ('_MEI\\tcl\\encoding\\cp869.enc', 'C:\\Anaconda\\tcl\\tcl8.5\\encoding\\cp869.enc', 'DATA'), ('_MEI\\tcl\\encoding\\cp874.enc', 'C:\\Anaconda\\tcl\\tcl8.5\\encoding\\cp874.enc', 'DATA'), ('_MEI\\tcl\\encoding\\cp932.enc', 'C:\\Anaconda\\tcl\\tcl8.5\\encoding\\cp932.enc', 'DATA'), ('_MEI\\tcl\\encoding\\cp936.enc', 'C:\\Anaconda\\tcl\\tcl8.5\\encoding\\cp936.enc', 'DATA'), ('_MEI\\tcl\\encoding\\cp949.enc', 'C:\\Anaconda\\tcl\\tcl8.5\\encoding\\cp949.enc', 'DATA'), ('_MEI\\tcl\\encoding\\cp950.enc', 'C:\\Anaconda\\tcl\\tcl8.5\\encoding\\cp950.enc', 'DATA'), ('_MEI\\tcl\\encoding\\dingbats.enc', 'C:\\Anaconda\\tcl\\tcl8.5\\encoding\\dingbats.enc', 'DATA'), ('_MEI\\tcl\\encoding\\ebcdic.enc', 'C:\\Anaconda\\tcl\\tcl8.5\\encoding\\ebcdic.enc', 'DATA'), ('_MEI\\tcl\\encoding\\euc-cn.enc', 'C:\\Anaconda\\tcl\\tcl8.5\\encoding\\euc-cn.enc', 'DATA'), ('_MEI\\tcl\\encoding\\euc-jp.enc', 'C:\\Anaconda\\tcl\\tcl8.5\\encoding\\euc-jp.enc', 'DATA'), ('_MEI\\tcl\\encoding\\euc-kr.enc', 'C:\\Anaconda\\tcl\\tcl8.5\\encoding\\euc-kr.enc', 'DATA'), ('_MEI\\tcl\\encoding\\gb12345.enc', 'C:\\Anaconda\\tcl\\tcl8.5\\encoding\\gb12345.enc', 'DATA'), ('_MEI\\tcl\\encoding\\gb1988.enc', 'C:\\Anaconda\\tcl\\tcl8.5\\encoding\\gb1988.enc', 'DATA'), ('_MEI\\tcl\\encoding\\gb2312-raw.enc', 'C:\\Anaconda\\tcl\\tcl8.5\\encoding\\gb2312-raw.enc', 'DATA'), ('_MEI\\tcl\\encoding\\gb2312.enc', 'C:\\Anaconda\\tcl\\tcl8.5\\encoding\\gb2312.enc', 'DATA'), ('_MEI\\tcl\\encoding\\iso2022-jp.enc', 'C:\\Anaconda\\tcl\\tcl8.5\\encoding\\iso2022-jp.enc', 'DATA'), ('_MEI\\tcl\\encoding\\iso2022-kr.enc', 'C:\\Anaconda\\tcl\\tcl8.5\\encoding\\iso2022-kr.enc', 'DATA'), ('_MEI\\tcl\\encoding\\iso2022.enc', 'C:\\Anaconda\\tcl\\tcl8.5\\encoding\\iso2022.enc', 'DATA'), ('_MEI\\tcl\\encoding\\iso8859-1.enc', 'C:\\Anaconda\\tcl\\tcl8.5\\encoding\\iso8859-1.enc', 'DATA'), ('_MEI\\tcl\\encoding\\iso8859-10.enc', 'C:\\Anaconda\\tcl\\tcl8.5\\encoding\\iso8859-10.enc', 'DATA'), ('_MEI\\tcl\\encoding\\iso8859-13.enc', 'C:\\Anaconda\\tcl\\tcl8.5\\encoding\\iso8859-13.enc', 'DATA'), ('_MEI\\tcl\\encoding\\iso8859-14.enc', 'C:\\Anaconda\\tcl\\tcl8.5\\encoding\\iso8859-14.enc', 'DATA'), ('_MEI\\tcl\\encoding\\iso8859-15.enc', 'C:\\Anaconda\\tcl\\tcl8.5\\encoding\\iso8859-15.enc', 'DATA'), ('_MEI\\tcl\\encoding\\iso8859-16.enc', 'C:\\Anaconda\\tcl\\tcl8.5\\encoding\\iso8859-16.enc', 'DATA'), ('_MEI\\tcl\\encoding\\iso8859-2.enc', 'C:\\Anaconda\\tcl\\tcl8.5\\encoding\\iso8859-2.enc', 'DATA'), ('_MEI\\tcl\\encoding\\iso8859-3.enc', 'C:\\Anaconda\\tcl\\tcl8.5\\encoding\\iso8859-3.enc', 'DATA'), ('_MEI\\tcl\\encoding\\iso8859-4.enc', 'C:\\Anaconda\\tcl\\tcl8.5\\encoding\\iso8859-4.enc', 'DATA'), ('_MEI\\tcl\\encoding\\iso8859-5.enc', 'C:\\Anaconda\\tcl\\tcl8.5\\encoding\\iso8859-5.enc', 'DATA'), ('_MEI\\tcl\\encoding\\iso8859-6.enc', 'C:\\Anaconda\\tcl\\tcl8.5\\encoding\\iso8859-6.enc', 'DATA'), ('_MEI\\tcl\\encoding\\iso8859-7.enc', 'C:\\Anaconda\\tcl\\tcl8.5\\encoding\\iso8859-7.enc', 'DATA'), ('_MEI\\tcl\\encoding\\iso8859-8.enc', 'C:\\Anaconda\\tcl\\tcl8.5\\encoding\\iso8859-8.enc', 'DATA'), ('_MEI\\tcl\\encoding\\iso8859-9.enc', 'C:\\Anaconda\\tcl\\tcl8.5\\encoding\\iso8859-9.enc', 'DATA'), ('_MEI\\tcl\\encoding\\jis0201.enc', 'C:\\Anaconda\\tcl\\tcl8.5\\encoding\\jis0201.enc', 'DATA'), ('_MEI\\tcl\\encoding\\jis0208.enc', 'C:\\Anaconda\\tcl\\tcl8.5\\encoding\\jis0208.enc', 'DATA'), ('_MEI\\tcl\\encoding\\jis0212.enc', 'C:\\Anaconda\\tcl\\tcl8.5\\encoding\\jis0212.enc', 'DATA'), ('_MEI\\tcl\\encoding\\koi8-r.enc', 'C:\\Anaconda\\tcl\\tcl8.5\\encoding\\koi8-r.enc', 'DATA'), ('_MEI\\tcl\\encoding\\koi8-u.enc', 'C:\\Anaconda\\tcl\\tcl8.5\\encoding\\koi8-u.enc', 'DATA'), ('_MEI\\tcl\\encoding\\ksc5601.enc', 'C:\\Anaconda\\tcl\\tcl8.5\\encoding\\ksc5601.enc', 'DATA'), ('_MEI\\tcl\\encoding\\macCentEuro.enc', 'C:\\Anaconda\\tcl\\tcl8.5\\encoding\\macCentEuro.enc', 'DATA'), ('_MEI\\tcl\\encoding\\macCroatian.enc', 'C:\\Anaconda\\tcl\\tcl8.5\\encoding\\macCroatian.enc', 'DATA'), ('_MEI\\tcl\\encoding\\macCyrillic.enc', 'C:\\Anaconda\\tcl\\tcl8.5\\encoding\\macCyrillic.enc', 'DATA'), ('_MEI\\tcl\\encoding\\macDingbats.enc', 'C:\\Anaconda\\tcl\\tcl8.5\\encoding\\macDingbats.enc', 'DATA'), ('_MEI\\tcl\\encoding\\macGreek.enc', 'C:\\Anaconda\\tcl\\tcl8.5\\encoding\\macGreek.enc', 'DATA'), ('_MEI\\tcl\\encoding\\macIceland.enc', 'C:\\Anaconda\\tcl\\tcl8.5\\encoding\\macIceland.enc', 'DATA'), ('_MEI\\tcl\\encoding\\macJapan.enc', 'C:\\Anaconda\\tcl\\tcl8.5\\encoding\\macJapan.enc', 'DATA'), ('_MEI\\tcl\\encoding\\macRoman.enc', 'C:\\Anaconda\\tcl\\tcl8.5\\encoding\\macRoman.enc', 'DATA'), ('_MEI\\tcl\\encoding\\macRomania.enc', 'C:\\Anaconda\\tcl\\tcl8.5\\encoding\\macRomania.enc', 'DATA'), ('_MEI\\tcl\\encoding\\macThai.enc', 'C:\\Anaconda\\tcl\\tcl8.5\\encoding\\macThai.enc', 'DATA'), ('_MEI\\tcl\\encoding\\macTurkish.enc', 'C:\\Anaconda\\tcl\\tcl8.5\\encoding\\macTurkish.enc', 'DATA'), ('_MEI\\tcl\\encoding\\macUkraine.enc', 'C:\\Anaconda\\tcl\\tcl8.5\\encoding\\macUkraine.enc', 'DATA'), ('_MEI\\tcl\\encoding\\shiftjis.enc', 'C:\\Anaconda\\tcl\\tcl8.5\\encoding\\shiftjis.enc', 'DATA'), ('_MEI\\tcl\\encoding\\symbol.enc', 'C:\\Anaconda\\tcl\\tcl8.5\\encoding\\symbol.enc', 'DATA'), ('_MEI\\tcl\\encoding\\tis-620.enc', 'C:\\Anaconda\\tcl\\tcl8.5\\encoding\\tis-620.enc', 'DATA'), ('_MEI\\tk\\bgerror.tcl', 'C:\\Anaconda\\tcl\\tk8.5\\bgerror.tcl', 'DATA'), ('_MEI\\tk\\button.tcl', 'C:\\Anaconda\\tcl\\tk8.5\\button.tcl', 'DATA'), ('_MEI\\tk\\choosedir.tcl', 'C:\\Anaconda\\tcl\\tk8.5\\choosedir.tcl', 'DATA'), ('_MEI\\tk\\clrpick.tcl', 'C:\\Anaconda\\tcl\\tk8.5\\clrpick.tcl', 'DATA'), ('_MEI\\tk\\comdlg.tcl', 'C:\\Anaconda\\tcl\\tk8.5\\comdlg.tcl', 'DATA'), ('_MEI\\tk\\console.tcl', 'C:\\Anaconda\\tcl\\tk8.5\\console.tcl', 'DATA'), ('_MEI\\tk\\dialog.tcl', 'C:\\Anaconda\\tcl\\tk8.5\\dialog.tcl', 'DATA'), ('_MEI\\tk\\entry.tcl', 'C:\\Anaconda\\tcl\\tk8.5\\entry.tcl', 'DATA'), ('_MEI\\tk\\focus.tcl', 'C:\\Anaconda\\tcl\\tk8.5\\focus.tcl', 'DATA'), ('_MEI\\tk\\license.terms', 'C:\\Anaconda\\tcl\\tk8.5\\license.terms', 'DATA'), ('_MEI\\tk\\listbox.tcl', 'C:\\Anaconda\\tcl\\tk8.5\\listbox.tcl', 'DATA'), ('_MEI\\tk\\menu.tcl', 'C:\\Anaconda\\tcl\\tk8.5\\menu.tcl', 'DATA'), ('_MEI\\tk\\mkpsenc.tcl', 'C:\\Anaconda\\tcl\\tk8.5\\mkpsenc.tcl', 'DATA'), ('_MEI\\tk\\msgbox.tcl', 'C:\\Anaconda\\tcl\\tk8.5\\msgbox.tcl', 'DATA'), ('_MEI\\tk\\obsolete.tcl', 'C:\\Anaconda\\tcl\\tk8.5\\obsolete.tcl', 'DATA'), ('_MEI\\tk\\optMenu.tcl', 'C:\\Anaconda\\tcl\\tk8.5\\optMenu.tcl', 'DATA'), ('_MEI\\tk\\palette.tcl', 'C:\\Anaconda\\tcl\\tk8.5\\palette.tcl', 'DATA'), ('_MEI\\tk\\panedwindow.tcl', 'C:\\Anaconda\\tcl\\tk8.5\\panedwindow.tcl', 'DATA'), ('_MEI\\tk\\pkgIndex.tcl', 'C:\\Anaconda\\tcl\\tk8.5\\pkgIndex.tcl', 'DATA'), ('_MEI\\tk\\safetk.tcl', 'C:\\Anaconda\\tcl\\tk8.5\\safetk.tcl', 'DATA'), ('_MEI\\tk\\scale.tcl', 'C:\\Anaconda\\tcl\\tk8.5\\scale.tcl', 'DATA'), ('_MEI\\tk\\scrlbar.tcl', 'C:\\Anaconda\\tcl\\tk8.5\\scrlbar.tcl', 'DATA'), ('_MEI\\tk\\spinbox.tcl', 'C:\\Anaconda\\tcl\\tk8.5\\spinbox.tcl', 'DATA'), ('_MEI\\tk\\tclIndex', 'C:\\Anaconda\\tcl\\tk8.5\\tclIndex', 'DATA'), ('_MEI\\tk\\tearoff.tcl', 'C:\\Anaconda\\tcl\\tk8.5\\tearoff.tcl', 'DATA'), ('_MEI\\tk\\text.tcl', 'C:\\Anaconda\\tcl\\tk8.5\\text.tcl', 'DATA'), ('_MEI\\tk\\tk.tcl', 'C:\\Anaconda\\tcl\\tk8.5\\tk.tcl', 'DATA'), ('_MEI\\tk\\tkfbox.tcl', 'C:\\Anaconda\\tcl\\tk8.5\\tkfbox.tcl', 'DATA'), ('_MEI\\tk\\unsupported.tcl', 'C:\\Anaconda\\tcl\\tk8.5\\unsupported.tcl', 'DATA'), ('_MEI\\tk\\xmfbox.tcl', 'C:\\Anaconda\\tcl\\tk8.5\\xmfbox.tcl', 'DATA'), ('_MEI\\tk\\ttk\\altTheme.tcl', 'C:\\Anaconda\\tcl\\tk8.5\\ttk\\altTheme.tcl', 'DATA'), ('_MEI\\tk\\ttk\\aquaTheme.tcl', 'C:\\Anaconda\\tcl\\tk8.5\\ttk\\aquaTheme.tcl', 'DATA'), ('_MEI\\tk\\ttk\\button.tcl', 'C:\\Anaconda\\tcl\\tk8.5\\ttk\\button.tcl', 'DATA'), ('_MEI\\tk\\ttk\\clamTheme.tcl', 'C:\\Anaconda\\tcl\\tk8.5\\ttk\\clamTheme.tcl', 'DATA'), ('_MEI\\tk\\ttk\\classicTheme.tcl', 'C:\\Anaconda\\tcl\\tk8.5\\ttk\\classicTheme.tcl', 'DATA'), ('_MEI\\tk\\ttk\\combobox.tcl', 'C:\\Anaconda\\tcl\\tk8.5\\ttk\\combobox.tcl', 'DATA'), ('_MEI\\tk\\ttk\\cursors.tcl', 'C:\\Anaconda\\tcl\\tk8.5\\ttk\\cursors.tcl', 'DATA'), ('_MEI\\tk\\ttk\\defaults.tcl', 'C:\\Anaconda\\tcl\\tk8.5\\ttk\\defaults.tcl', 'DATA'), ('_MEI\\tk\\ttk\\entry.tcl', 'C:\\Anaconda\\tcl\\tk8.5\\ttk\\entry.tcl', 'DATA'), ('_MEI\\tk\\ttk\\fonts.tcl', 'C:\\Anaconda\\tcl\\tk8.5\\ttk\\fonts.tcl', 'DATA'), ('_MEI\\tk\\ttk\\menubutton.tcl', 'C:\\Anaconda\\tcl\\tk8.5\\ttk\\menubutton.tcl', 'DATA'), ('_MEI\\tk\\ttk\\notebook.tcl', 'C:\\Anaconda\\tcl\\tk8.5\\ttk\\notebook.tcl', 'DATA'), ('_MEI\\tk\\ttk\\panedwindow.tcl', 'C:\\Anaconda\\tcl\\tk8.5\\ttk\\panedwindow.tcl', 'DATA'), ('_MEI\\tk\\ttk\\progress.tcl', 'C:\\Anaconda\\tcl\\tk8.5\\ttk\\progress.tcl', 'DATA'), ('_MEI\\tk\\ttk\\scale.tcl', 'C:\\Anaconda\\tcl\\tk8.5\\ttk\\scale.tcl', 'DATA'), ('_MEI\\tk\\ttk\\scrollbar.tcl', 'C:\\Anaconda\\tcl\\tk8.5\\ttk\\scrollbar.tcl', 'DATA'), ('_MEI\\tk\\ttk\\sizegrip.tcl', 'C:\\Anaconda\\tcl\\tk8.5\\ttk\\sizegrip.tcl', 'DATA'), ('_MEI\\tk\\ttk\\spinbox.tcl', 'C:\\Anaconda\\tcl\\tk8.5\\ttk\\spinbox.tcl', 'DATA'), ('_MEI\\tk\\ttk\\treeview.tcl', 'C:\\Anaconda\\tcl\\tk8.5\\ttk\\treeview.tcl', 'DATA'), ('_MEI\\tk\\ttk\\ttk.tcl', 'C:\\Anaconda\\tcl\\tk8.5\\ttk\\ttk.tcl', 'DATA'), ('_MEI\\tk\\ttk\\utils.tcl', 'C:\\Anaconda\\tcl\\tk8.5\\ttk\\utils.tcl', 'DATA'), ('_MEI\\tk\\ttk\\vistaTheme.tcl', 'C:\\Anaconda\\tcl\\tk8.5\\ttk\\vistaTheme.tcl', 'DATA'), ('_MEI\\tk\\ttk\\winTheme.tcl', 'C:\\Anaconda\\tcl\\tk8.5\\ttk\\winTheme.tcl', 'DATA'), ('_MEI\\tk\\ttk\\xpTheme.tcl', 'C:\\Anaconda\\tcl\\tk8.5\\ttk\\xpTheme.tcl', 'DATA'), ('_MEI\\tk\\msgs\\cs.msg', 'C:\\Anaconda\\tcl\\tk8.5\\msgs\\cs.msg', 'DATA'), ('_MEI\\tk\\msgs\\da.msg', 'C:\\Anaconda\\tcl\\tk8.5\\msgs\\da.msg', 'DATA'), ('_MEI\\tk\\msgs\\de.msg', 'C:\\Anaconda\\tcl\\tk8.5\\msgs\\de.msg', 'DATA'), ('_MEI\\tk\\msgs\\el.msg', 'C:\\Anaconda\\tcl\\tk8.5\\msgs\\el.msg', 'DATA'), ('_MEI\\tk\\msgs\\en.msg', 'C:\\Anaconda\\tcl\\tk8.5\\msgs\\en.msg', 'DATA'), ('_MEI\\tk\\msgs\\en_gb.msg', 'C:\\Anaconda\\tcl\\tk8.5\\msgs\\en_gb.msg', 'DATA'), ('_MEI\\tk\\msgs\\eo.msg', 'C:\\Anaconda\\tcl\\tk8.5\\msgs\\eo.msg', 'DATA'), ('_MEI\\tk\\msgs\\es.msg', 'C:\\Anaconda\\tcl\\tk8.5\\msgs\\es.msg', 'DATA'), ('_MEI\\tk\\msgs\\fr.msg', 'C:\\Anaconda\\tcl\\tk8.5\\msgs\\fr.msg', 'DATA'), ('_MEI\\tk\\msgs\\hu.msg', 'C:\\Anaconda\\tcl\\tk8.5\\msgs\\hu.msg', 'DATA'), ('_MEI\\tk\\msgs\\it.msg', 'C:\\Anaconda\\tcl\\tk8.5\\msgs\\it.msg', 'DATA'), ('_MEI\\tk\\msgs\\nl.msg', 'C:\\Anaconda\\tcl\\tk8.5\\msgs\\nl.msg', 'DATA'), ('_MEI\\tk\\msgs\\pl.msg', 'C:\\Anaconda\\tcl\\tk8.5\\msgs\\pl.msg', 'DATA'), ('_MEI\\tk\\msgs\\pt.msg', 'C:\\Anaconda\\tcl\\tk8.5\\msgs\\pt.msg', 'DATA'), ('_MEI\\tk\\msgs\\ru.msg', 'C:\\Anaconda\\tcl\\tk8.5\\msgs\\ru.msg', 'DATA'), ('_MEI\\tk\\msgs\\sv.msg', 'C:\\Anaconda\\tcl\\tk8.5\\msgs\\sv.msg', 'DATA'), ('_MEI\\tk\\images\\logo.eps', 'C:\\Anaconda\\tcl\\tk8.5\\images\\logo.eps', 'DATA'), ('_MEI\\tk\\images\\logo100.gif', 'C:\\Anaconda\\tcl\\tk8.5\\images\\logo100.gif', 'DATA'), ('_MEI\\tk\\images\\logo64.gif', 'C:\\Anaconda\\tcl\\tk8.5\\images\\logo64.gif', 'DATA'), ('_MEI\\tk\\images\\logoLarge.gif', 'C:\\Anaconda\\tcl\\tk8.5\\images\\logoLarge.gif', 'DATA'), ('_MEI\\tk\\images\\logoMed.gif', 'C:\\Anaconda\\tcl\\tk8.5\\images\\logoMed.gif', 'DATA'), ('_MEI\\tk\\images\\pwrdLogo.eps', 'C:\\Anaconda\\tcl\\tk8.5\\images\\pwrdLogo.eps', 'DATA'), ('_MEI\\tk\\images\\pwrdLogo100.gif', 'C:\\Anaconda\\tcl\\tk8.5\\images\\pwrdLogo100.gif', 'DATA'), ('_MEI\\tk\\images\\pwrdLogo150.gif', 'C:\\Anaconda\\tcl\\tk8.5\\images\\pwrdLogo150.gif', 'DATA'), ('_MEI\\tk\\images\\pwrdLogo175.gif', 'C:\\Anaconda\\tcl\\tk8.5\\images\\pwrdLogo175.gif', 'DATA'), ('_MEI\\tk\\images\\pwrdLogo200.gif', 'C:\\Anaconda\\tcl\\tk8.5\\images\\pwrdLogo200.gif', 'DATA'), ('_MEI\\tk\\images\\pwrdLogo75.gif', 'C:\\Anaconda\\tcl\\tk8.5\\images\\pwrdLogo75.gif', 'DATA'), ('_MEI\\tk\\images\\README', 'C:\\Anaconda\\tcl\\tk8.5\\images\\README', 'DATA'), ('_MEI\\tk\\images\\tai-ku.gif', 'C:\\Anaconda\\tcl\\tk8.5\\images\\tai-ku.gif', 'DATA'), ('BibFixer.exe.manifest', 'C:\\Users\\daver_000\\Dropbox\\BibFixer\\build\\BibFixer\\BibFixer.exe.manifest', 'BINARY')],
 False,
 None,
 False)
